^C:\USERS\САША\DESKTOP\ЧЕТВЕРТЫЙ МГ Х_Х\RAYTRACER\SRC\RELEASE\AXISALIGNEDBOX.OBJ|C:\USERS\САША\DESKTOP\ЧЕТВЕРТЫЙ МГ Х_Х\RAYTRACER\SRC\RELEASE\L3DS.OBJ|C:\USERS\САША\DESKTOP\ЧЕТВЕРТЫЙ МГ Х_Х\RAYTRACER\SRC\RELEASE\MAIN.OBJ|C:\USERS\САША\DESKTOP\ЧЕТВЕРТЫЙ МГ Х_Х\RAYTRACER\SRC\RELEASE\MATH.OBJ|C:\USERS\САША\DESKTOP\ЧЕТВЕРТЫЙ МГ Х_Х\RAYTRACER\SRC\RELEASE\MATRIX3.OBJ|C:\USERS\САША\DESKTOP\ЧЕТВЕРТЫЙ МГ Х_Х\RAYTRACER\SRC\RELEASE\MATRIX4.OBJ|C:\USERS\САША\DESKTOP\ЧЕТВЕРТЫЙ МГ Х_Х\RAYTRACER\SRC\RELEASE\PLANE.OBJ|C:\USERS\САША\DESKTOP\ЧЕТВЕРТЫЙ МГ Х_Х\RAYTRACER\SRC\RELEASE\QUATERNION.OBJ|C:\USERS\САША\DESKTOP\ЧЕТВЕРТЫЙ МГ Х_Х\RAYTRACER\SRC\RELEASE\SCENE.OBJ|C:\USERS\САША\DESKTOP\ЧЕТВЕРТЫЙ МГ Х_Х\RAYTRACER\SRC\RELEASE\TRACER.OBJ|C:\USERS\САША\DESKTOP\ЧЕТВЕРТЫЙ МГ Х_Х\RAYTRACER\SRC\RELEASE\VECTOR2.OBJ|C:\USERS\САША\DESKTOP\ЧЕТВЕРТЫЙ МГ Х_Х\RAYTRACER\SRC\RELEASE\VECTOR3.OBJ|C:\USERS\САША\DESKTOP\ЧЕТВЕРТЫЙ МГ Х_Х\RAYTRACER\SRC\RELEASE\VECTOR4.OBJ
C:\WINDOWS\GLOBALIZATION\SORTING\SORTDEFAULT.NLS
C:\PROGRAM FILES (X86)\WINDOWS KITS\8.1\LIB\WINV6.3\UM\X86\KERNEL32.LIB
C:\PROGRAM FILES (X86)\WINDOWS KITS\8.1\LIB\WINV6.3\UM\X86\USER32.LIB
C:\PROGRAM FILES (X86)\WINDOWS KITS\8.1\LIB\WINV6.3\UM\X86\GDI32.LIB
C:\PROGRAM FILES (X86)\WINDOWS KITS\8.1\LIB\WINV6.3\UM\X86\WINSPOOL.LIB
C:\PROGRAM FILES (X86)\WINDOWS KITS\8.1\LIB\WINV6.3\UM\X86\COMDLG32.LIB
C:\PROGRAM FILES (X86)\WINDOWS KITS\8.1\LIB\WINV6.3\UM\X86\ADVAPI32.LIB
C:\PROGRAM FILES (X86)\WINDOWS KITS\8.1\LIB\WINV6.3\UM\X86\SHELL32.LIB
C:\PROGRAM FILES (X86)\WINDOWS KITS\8.1\LIB\WINV6.3\UM\X86\OLE32.LIB
C:\PROGRAM FILES (X86)\WINDOWS KITS\8.1\LIB\WINV6.3\UM\X86\OLEAUT32.LIB
C:\PROGRAM FILES (X86)\WINDOWS KITS\8.1\LIB\WINV6.3\UM\X86\UUID.LIB
C:\PROGRAM FILES (X86)\WINDOWS KITS\8.1\LIB\WINV6.3\UM\X86\ODBC32.LIB
C:\PROGRAM FILES (X86)\WINDOWS KITS\8.1\LIB\WINV6.3\UM\X86\ODBCCP32.LIB
C:\USERS\Саша\DESKTOP\ЧЕТВЕРТЫЙ МГ Х_Х\RAYTRACER\SRC\RELEASE\AXISALIGNEDBOX.OBJ
C:\USERS\Саша\DESKTOP\ЧЕТВЕРТЫЙ МГ Х_Х\RAYTRACER\SRC\RELEASE\MATH.OBJ
C:\USERS\Саша\DESKTOP\ЧЕТВЕРТЫЙ МГ Х_Х\RAYTRACER\SRC\RELEASE\MATRIX3.OBJ
C:\USERS\Саша\DESKTOP\ЧЕТВЕРТЫЙ МГ Х_Х\RAYTRACER\SRC\RELEASE\MATRIX4.OBJ
C:\USERS\Саша\DESKTOP\ЧЕТВЕРТЫЙ МГ Х_Х\RAYTRACER\SRC\RELEASE\PLANE.OBJ
C:\USERS\Саша\DESKTOP\ЧЕТВЕРТЫЙ МГ Х_Х\RAYTRACER\SRC\RELEASE\QUATERNION.OBJ
C:\USERS\Саша\DESKTOP\ЧЕТВЕРТЫЙ МГ Х_Х\RAYTRACER\SRC\RELEASE\VECTOR2.OBJ
C:\USERS\Саша\DESKTOP\ЧЕТВЕРТЫЙ МГ Х_Х\RAYTRACER\SRC\RELEASE\VECTOR3.OBJ
C:\USERS\Саша\DESKTOP\ЧЕТВЕРТЫЙ МГ Х_Х\RAYTRACER\SRC\RELEASE\VECTOR4.OBJ
C:\USERS\Саша\DESKTOP\ЧЕТВЕРТЫЙ МГ Х_Х\RAYTRACER\SRC\RELEASE\L3DS.OBJ
C:\USERS\Саша\DESKTOP\ЧЕТВЕРТЫЙ МГ Х_Х\RAYTRACER\SRC\RELEASE\MAIN.OBJ
C:\USERS\Саша\DESKTOP\ЧЕТВЕРТЫЙ МГ Х_Х\RAYTRACER\SRC\RELEASE\SCENE.OBJ
C:\USERS\Саша\DESKTOP\ЧЕТВЕРТЫЙ МГ Х_Х\RAYTRACER\SRC\RELEASE\TRACER.OBJ
D:\VS\VC\BIN\C2.DLL
D:\VS\VC\LIB\MSVCPRT.LIB
D:\VS\VC\LIB\MSVCRT.LIB
D:\VS\VC\LIB\OLDNAMES.LIB
D:\VS\VC\LIB\VCOMP.LIB
D:\VS\VC\ATLMFC\LIB\ATLS.LIB
C:\PROGRAM FILES (X86)\WINDOWS KITS\8.1\LIB\WINV6.3\UM\X86\SHLWAPI.LIB
C:\PROGRAM FILES (X86)\WINDOWS KITS\8.1\LIB\WINV6.3\UM\X86\GDIPLUS.LIB
C:\PROGRAM FILES (X86)\WINDOWS KITS\8.1\LIB\WINV6.3\UM\X86\MSIMG32.LIB
D:\VS\VC\BIN\1049\LINKUI.DLL
D:\VS\VC\BIN\MSPDBSRV.EXE
C:\PROGRAM FILES (X86)\WINDOWS KITS\8.1\BIN\X86\RC.EXE
D:\VS\VC\BIN\CVTRES.EXE
C:\WINDOWS\SYSTEM32\TZRES.DLL
C:\WINDOWS\SYSTEM32\RSAENH.DLL
