^C:\USERS\САША\DESKTOP\ЧЕТВЕРТЫЙ МГ Х_Х\RAYTRACER\SRC\L3DS\L3DS.CPP
/c /I..\glm /ZI /nologo /W3 /WX- /Od /Oy- /D WIN32 /D _DEBUG /D _CONSOLE /D _MBCS /Gm /EHsc /RTC1 /MDd /GS /fp:precise /Zc:wchar_t /Zc:forScope /openmp /Fo"DEBUG\\" /Fd"DEBUG\VC120.PDB" /Gd /TP /analyze- C:\USERS\САША\DESKTOP\ЧЕТВЕРТЫЙ МГ Х_Х\RAYTRACER\SRC\L3DS\L3DS.CPP
^C:\USERS\САША\DESKTOP\ЧЕТВЕРТЫЙ МГ Х_Х\RAYTRACER\SRC\MAIN.CPP
/c /I..\glm /ZI /nologo /W3 /WX- /Od /Oy- /D WIN32 /D _DEBUG /D _CONSOLE /D _MBCS /Gm /EHsc /RTC1 /MDd /GS /fp:precise /Zc:wchar_t /Zc:forScope /openmp /Fo"DEBUG\\" /Fd"DEBUG\VC120.PDB" /Gd /TP /analyze- C:\USERS\САША\DESKTOP\ЧЕТВЕРТЫЙ МГ Х_Х\RAYTRACER\SRC\MAIN.CPP
^C:\USERS\САША\DESKTOP\ЧЕТВЕРТЫЙ МГ Х_Х\RAYTRACER\SRC\SCENE.CPP
/c /I..\glm /ZI /nologo /W3 /WX- /Od /Oy- /D WIN32 /D _DEBUG /D _CONSOLE /D _MBCS /Gm /EHsc /RTC1 /MDd /GS /fp:precise /Zc:wchar_t /Zc:forScope /openmp /Fo"DEBUG\\" /Fd"DEBUG\VC120.PDB" /Gd /TP /analyze- C:\USERS\САША\DESKTOP\ЧЕТВЕРТЫЙ МГ Х_Х\RAYTRACER\SRC\SCENE.CPP
^C:\USERS\САША\DESKTOP\ЧЕТВЕРТЫЙ МГ Х_Х\RAYTRACER\SRC\TRACER.CPP
/c /I..\glm /ZI /nologo /W3 /WX- /Od /Oy- /D WIN32 /D _DEBUG /D _CONSOLE /D _MBCS /Gm /EHsc /RTC1 /MDd /GS /fp:precise /Zc:wchar_t /Zc:forScope /openmp /Fo"DEBUG\\" /Fd"DEBUG\VC120.PDB" /Gd /TP /analyze- C:\USERS\САША\DESKTOP\ЧЕТВЕРТЫЙ МГ Х_Х\RAYTRACER\SRC\TRACER.CPP
^C:\USERS\САША\DESKTOP\ЧЕТВЕРТЫЙ МГ Х_Х\RAYTRACER\SRC\COMMONMATH\MATH.CPP
/c /I..\glm /ZI /nologo /W3 /WX- /Od /Oy- /D WIN32 /D _DEBUG /D _CONSOLE /D _MBCS /Gm /EHsc /RTC1 /MDd /GS /fp:precise /Zc:wchar_t /Zc:forScope /openmp /Fo"DEBUG\\" /Fd"DEBUG\VC120.PDB" /Gd /TP /analyze- C:\USERS\САША\DESKTOP\ЧЕТВЕРТЫЙ МГ Х_Х\RAYTRACER\SRC\COMMONMATH\MATH.CPP
^C:\USERS\САША\DESKTOP\ЧЕТВЕРТЫЙ МГ Х_Х\RAYTRACER\SRC\COMMONMATH\AXISALIGNEDBOX.CPP
/c /I..\glm /ZI /nologo /W3 /WX- /Od /Oy- /D WIN32 /D _DEBUG /D _CONSOLE /D _MBCS /Gm /EHsc /RTC1 /MDd /GS /fp:precise /Zc:wchar_t /Zc:forScope /openmp /Fo"DEBUG\\" /Fd"DEBUG\VC120.PDB" /Gd /TP /analyze- C:\USERS\САША\DESKTOP\ЧЕТВЕРТЫЙ МГ Х_Х\RAYTRACER\SRC\COMMONMATH\AXISALIGNEDBOX.CPP
^C:\USERS\САША\DESKTOP\ЧЕТВЕРТЫЙ МГ Х_Х\RAYTRACER\SRC\COMMONMATH\VECTOR3.CPP
/c /I..\glm /ZI /nologo /W3 /WX- /Od /Oy- /D WIN32 /D _DEBUG /D _CONSOLE /D _MBCS /Gm /EHsc /RTC1 /MDd /GS /fp:precise /Zc:wchar_t /Zc:forScope /openmp /Fo"DEBUG\\" /Fd"DEBUG\VC120.PDB" /Gd /TP /analyze- C:\USERS\САША\DESKTOP\ЧЕТВЕРТЫЙ МГ Х_Х\RAYTRACER\SRC\COMMONMATH\VECTOR3.CPP
^C:\USERS\САША\DESKTOP\ЧЕТВЕРТЫЙ МГ Х_Х\RAYTRACER\SRC\COMMONMATH\MATRIX3.CPP
/c /I..\glm /ZI /nologo /W3 /WX- /Od /Oy- /D WIN32 /D _DEBUG /D _CONSOLE /D _MBCS /Gm /EHsc /RTC1 /MDd /GS /fp:precise /Zc:wchar_t /Zc:forScope /openmp /Fo"DEBUG\\" /Fd"DEBUG\VC120.PDB" /Gd /TP /analyze- C:\USERS\САША\DESKTOP\ЧЕТВЕРТЫЙ МГ Х_Х\RAYTRACER\SRC\COMMONMATH\MATRIX3.CPP
^C:\USERS\САША\DESKTOP\ЧЕТВЕРТЫЙ МГ Х_Х\RAYTRACER\SRC\COMMONMATH\MATRIX4.CPP
/c /I..\glm /ZI /nologo /W3 /WX- /Od /Oy- /D WIN32 /D _DEBUG /D _CONSOLE /D _MBCS /Gm /EHsc /RTC1 /MDd /GS /fp:precise /Zc:wchar_t /Zc:forScope /openmp /Fo"DEBUG\\" /Fd"DEBUG\VC120.PDB" /Gd /TP /analyze- C:\USERS\САША\DESKTOP\ЧЕТВЕРТЫЙ МГ Х_Х\RAYTRACER\SRC\COMMONMATH\MATRIX4.CPP
^C:\USERS\САША\DESKTOP\ЧЕТВЕРТЫЙ МГ Х_Х\RAYTRACER\SRC\COMMONMATH\PLANE.CPP
/c /I..\glm /ZI /nologo /W3 /WX- /Od /Oy- /D WIN32 /D _DEBUG /D _CONSOLE /D _MBCS /Gm /EHsc /RTC1 /MDd /GS /fp:precise /Zc:wchar_t /Zc:forScope /openmp /Fo"DEBUG\\" /Fd"DEBUG\VC120.PDB" /Gd /TP /analyze- C:\USERS\САША\DESKTOP\ЧЕТВЕРТЫЙ МГ Х_Х\RAYTRACER\SRC\COMMONMATH\PLANE.CPP
^C:\USERS\САША\DESKTOP\ЧЕТВЕРТЫЙ МГ Х_Х\RAYTRACER\SRC\COMMONMATH\QUATERNION.CPP
/c /I..\glm /ZI /nologo /W3 /WX- /Od /Oy- /D WIN32 /D _DEBUG /D _CONSOLE /D _MBCS /Gm /EHsc /RTC1 /MDd /GS /fp:precise /Zc:wchar_t /Zc:forScope /openmp /Fo"DEBUG\\" /Fd"DEBUG\VC120.PDB" /Gd /TP /analyze- C:\USERS\САША\DESKTOP\ЧЕТВЕРТЫЙ МГ Х_Х\RAYTRACER\SRC\COMMONMATH\QUATERNION.CPP
^C:\USERS\САША\DESKTOP\ЧЕТВЕРТЫЙ МГ Х_Х\RAYTRACER\SRC\COMMONMATH\VECTOR2.CPP
/c /I..\glm /ZI /nologo /W3 /WX- /Od /Oy- /D WIN32 /D _DEBUG /D _CONSOLE /D _MBCS /Gm /EHsc /RTC1 /MDd /GS /fp:precise /Zc:wchar_t /Zc:forScope /openmp /Fo"DEBUG\\" /Fd"DEBUG\VC120.PDB" /Gd /TP /analyze- C:\USERS\САША\DESKTOP\ЧЕТВЕРТЫЙ МГ Х_Х\RAYTRACER\SRC\COMMONMATH\VECTOR2.CPP
^C:\USERS\САША\DESKTOP\ЧЕТВЕРТЫЙ МГ Х_Х\RAYTRACER\SRC\COMMONMATH\VECTOR4.CPP
/c /I..\glm /ZI /nologo /W3 /WX- /Od /Oy- /D WIN32 /D _DEBUG /D _CONSOLE /D _MBCS /Gm /EHsc /RTC1 /MDd /GS /fp:precise /Zc:wchar_t /Zc:forScope /openmp /Fo"DEBUG\\" /Fd"DEBUG\VC120.PDB" /Gd /TP /analyze- C:\USERS\САША\DESKTOP\ЧЕТВЕРТЫЙ МГ Х_Х\RAYTRACER\SRC\COMMONMATH\VECTOR4.CPP
