^C:\USERS\Саша\DESKTOP\ЧЕТВЕРТЫЙ МГ Х_Х\RAYTRACER\SRC\TRACER.CPP
C:\USERS\саша\DESKTOP\четвертый мг х_х\RAYTRACER\SRC\TRACER.H
C:\USERS\саша\DESKTOP\четвертый мг х_х\RAYTRACER\SRC\GLM\GLM.HPP
C:\USERS\саша\DESKTOP\четвертый мг х_х\RAYTRACER\SRC\GLM\CORE\_FIXES.HPP
D:\VS\VC\INCLUDE\CMATH
D:\VS\VC\INCLUDE\YVALS.H
D:\VS\VC\INCLUDE\XKEYCHECK.H
D:\VS\VC\INCLUDE\CRTDEFS.H
D:\VS\VC\INCLUDE\SAL.H
D:\VS\VC\INCLUDE\CONCURRENCYSAL.H
D:\VS\VC\INCLUDE\VADEFS.H
D:\VS\VC\INCLUDE\USE_ANSI.H
D:\VS\VC\INCLUDE\MATH.H
D:\VS\VC\INCLUDE\XTGMATH.H
D:\VS\VC\INCLUDE\XTR1COMMON
D:\VS\VC\INCLUDE\CLIMITS
D:\VS\VC\INCLUDE\LIMITS.H
D:\VS\VC\INCLUDE\CFLOAT
D:\VS\VC\INCLUDE\FLOAT.H
D:\VS\VC\INCLUDE\CRTWRN.H
D:\VS\VC\INCLUDE\LIMITS
D:\VS\VC\INCLUDE\YMATH.H
D:\VS\VC\INCLUDE\CWCHAR
D:\VS\VC\INCLUDE\WCHAR.H
D:\VS\VC\INCLUDE\SWPRINTF.INL
D:\VS\VC\INCLUDE\WTIME.INL
D:\VS\VC\INCLUDE\XSTDDEF
D:\VS\VC\INCLUDE\STDLIB.H
D:\VS\VC\INCLUDE\CSTDDEF
D:\VS\VC\INCLUDE\STDDEF.H
D:\VS\VC\INCLUDE\INITIALIZER_LIST
D:\VS\VC\INCLUDE\CSTDIO
D:\VS\VC\INCLUDE\STDIO.H
C:\USERS\саша\DESKTOP\четвертый мг х_х\RAYTRACER\SRC\GLM\CORE\SETUP.HPP
D:\VS\VC\INCLUDE\IMMINTRIN.H
D:\VS\VC\INCLUDE\WMMINTRIN.H
D:\VS\VC\INCLUDE\NMMINTRIN.H
D:\VS\VC\INCLUDE\SMMINTRIN.H
D:\VS\VC\INCLUDE\TMMINTRIN.H
D:\VS\VC\INCLUDE\PMMINTRIN.H
D:\VS\VC\INCLUDE\EMMINTRIN.H
D:\VS\VC\INCLUDE\XMMINTRIN.H
D:\VS\VC\INCLUDE\MMINTRIN.H
D:\VS\VC\INCLUDE\MALLOC.H
C:\USERS\саша\DESKTOP\четвертый мг х_х\RAYTRACER\SRC\GLM\CORE\_DETAIL.HPP
D:\VS\VC\INCLUDE\CASSERT
D:\VS\VC\INCLUDE\ASSERT.H
C:\USERS\саша\DESKTOP\четвертый мг х_х\RAYTRACER\SRC\GLM\CORE\_VECTORIZE.HPP
C:\USERS\саша\DESKTOP\четвертый мг х_х\RAYTRACER\SRC\GLM\CORE\TYPE.HPP
C:\USERS\саша\DESKTOP\четвертый мг х_х\RAYTRACER\SRC\GLM\CORE\TYPE_HALF.HPP
D:\VS\VC\INCLUDE\CSTDLIB
C:\USERS\саша\DESKTOP\четвертый мг х_х\RAYTRACER\SRC\GLM\CORE\TYPE_HALF.INL
C:\USERS\саша\DESKTOP\четвертый мг х_х\RAYTRACER\SRC\GLM\CORE\TYPE_FLOAT.HPP
C:\USERS\саша\DESKTOP\четвертый мг х_х\RAYTRACER\SRC\GLM\CORE\TYPE_INT.HPP
C:\USERS\саша\DESKTOP\четвертый мг х_х\RAYTRACER\SRC\GLM\CORE\TYPE_GENTYPE.HPP
C:\USERS\саша\DESKTOP\четвертый мг х_х\RAYTRACER\SRC\GLM\CORE\TYPE_SIZE.HPP
C:\USERS\саша\DESKTOP\четвертый мг х_х\RAYTRACER\SRC\GLM\CORE\TYPE_VEC1.HPP
C:\USERS\саша\DESKTOP\четвертый мг х_х\RAYTRACER\SRC\GLM\CORE\TYPE_VEC.HPP
C:\USERS\саша\DESKTOP\четвертый мг х_х\RAYTRACER\SRC\GLM\CORE\_SWIZZLE.HPP
C:\USERS\саша\DESKTOP\четвертый мг х_х\RAYTRACER\SRC\GLM\CORE\_SWIZZLE_FUNC.HPP
C:\USERS\саша\DESKTOP\четвертый мг х_х\RAYTRACER\SRC\GLM\CORE\TYPE_VEC1.INL
C:\USERS\саша\DESKTOP\четвертый мг х_х\RAYTRACER\SRC\GLM\CORE\TYPE_VEC2.HPP
C:\USERS\саша\DESKTOP\четвертый мг х_х\RAYTRACER\SRC\GLM\CORE\TYPE_VEC2.INL
C:\USERS\саша\DESKTOP\четвертый мг х_х\RAYTRACER\SRC\GLM\CORE\TYPE_VEC3.HPP
C:\USERS\саша\DESKTOP\четвертый мг х_х\RAYTRACER\SRC\GLM\CORE\TYPE_VEC3.INL
C:\USERS\саша\DESKTOP\четвертый мг х_х\RAYTRACER\SRC\GLM\CORE\TYPE_VEC4.HPP
C:\USERS\саша\DESKTOP\четвертый мг х_х\RAYTRACER\SRC\GLM\CORE\TYPE_VEC4.INL
C:\USERS\саша\DESKTOP\четвертый мг х_х\RAYTRACER\SRC\GLM\CORE\TYPE_MAT2X2.HPP
C:\USERS\саша\DESKTOP\четвертый мг х_х\RAYTRACER\SRC\GLM\CORE\TYPE_MAT.HPP
C:\USERS\саша\DESKTOP\четвертый мг х_х\RAYTRACER\SRC\GLM\CORE\TYPE_MAT2X2.INL
C:\USERS\саша\DESKTOP\четвертый мг х_х\RAYTRACER\SRC\GLM\CORE\TYPE_MAT2X3.HPP
C:\USERS\саша\DESKTOP\четвертый мг х_х\RAYTRACER\SRC\GLM\CORE\TYPE_MAT2X3.INL
C:\USERS\саша\DESKTOP\четвертый мг х_х\RAYTRACER\SRC\GLM\CORE\TYPE_MAT2X4.HPP
C:\USERS\саша\DESKTOP\четвертый мг х_х\RAYTRACER\SRC\GLM\CORE\TYPE_MAT2X4.INL
C:\USERS\саша\DESKTOP\четвертый мг х_х\RAYTRACER\SRC\GLM\CORE\TYPE_MAT3X2.HPP
C:\USERS\саша\DESKTOP\четвертый мг х_х\RAYTRACER\SRC\GLM\CORE\TYPE_MAT3X2.INL
C:\USERS\саша\DESKTOP\четвертый мг х_х\RAYTRACER\SRC\GLM\CORE\TYPE_MAT3X3.HPP
C:\USERS\саша\DESKTOP\четвертый мг х_х\RAYTRACER\SRC\GLM\CORE\TYPE_MAT3X3.INL
C:\USERS\саша\DESKTOP\четвертый мг х_х\RAYTRACER\SRC\GLM\CORE\TYPE_MAT3X4.HPP
C:\USERS\саша\DESKTOP\четвертый мг х_х\RAYTRACER\SRC\GLM\CORE\TYPE_MAT3X4.INL
C:\USERS\саша\DESKTOP\четвертый мг х_х\RAYTRACER\SRC\GLM\CORE\TYPE_MAT4X2.HPP
C:\USERS\саша\DESKTOP\четвертый мг х_х\RAYTRACER\SRC\GLM\CORE\TYPE_MAT4X2.INL
C:\USERS\саша\DESKTOP\четвертый мг х_х\RAYTRACER\SRC\GLM\CORE\TYPE_MAT4X3.HPP
C:\USERS\саша\DESKTOP\четвертый мг х_х\RAYTRACER\SRC\GLM\CORE\TYPE_MAT4X3.INL
C:\USERS\саша\DESKTOP\четвертый мг х_х\RAYTRACER\SRC\GLM\CORE\TYPE_MAT4X4.HPP
C:\USERS\саша\DESKTOP\четвертый мг х_х\RAYTRACER\SRC\GLM\CORE\TYPE_MAT4X4.INL
C:\USERS\саша\DESKTOP\четвертый мг х_х\RAYTRACER\SRC\GLM\CORE\FUNC_TRIGONOMETRIC.HPP
C:\USERS\саша\DESKTOP\четвертый мг х_х\RAYTRACER\SRC\GLM\CORE\FUNC_TRIGONOMETRIC.INL
C:\USERS\саша\DESKTOP\четвертый мг х_х\RAYTRACER\SRC\GLM\CORE\FUNC_EXPONENTIAL.HPP
C:\USERS\саша\DESKTOP\четвертый мг х_х\RAYTRACER\SRC\GLM\CORE\FUNC_EXPONENTIAL.INL
C:\USERS\саша\DESKTOP\четвертый мг х_х\RAYTRACER\SRC\GLM\CORE\FUNC_COMMON.HPP
C:\USERS\саша\DESKTOP\четвертый мг х_х\RAYTRACER\SRC\GLM\CORE\FUNC_COMMON.INL
C:\USERS\саша\DESKTOP\четвертый мг х_х\RAYTRACER\SRC\GLM\CORE\FUNC_PACKING.HPP
C:\USERS\саша\DESKTOP\четвертый мг х_х\RAYTRACER\SRC\GLM\CORE\FUNC_PACKING.INL
C:\USERS\саша\DESKTOP\четвертый мг х_х\RAYTRACER\SRC\GLM\CORE\FUNC_GEOMETRIC.HPP
C:\USERS\саша\DESKTOP\четвертый мг х_х\RAYTRACER\SRC\GLM\CORE\FUNC_GEOMETRIC.INL
C:\USERS\саша\DESKTOP\четвертый мг х_х\RAYTRACER\SRC\GLM\CORE\FUNC_MATRIX.HPP
C:\USERS\саша\DESKTOP\четвертый мг х_х\RAYTRACER\SRC\GLM\CORE\FUNC_MATRIX.INL
C:\USERS\саша\DESKTOP\четвертый мг х_х\RAYTRACER\SRC\GLM\CORE\FUNC_VECTOR_RELATIONAL.HPP
C:\USERS\саша\DESKTOP\четвертый мг х_х\RAYTRACER\SRC\GLM\CORE\FUNC_VECTOR_RELATIONAL.INL
C:\USERS\саша\DESKTOP\четвертый мг х_х\RAYTRACER\SRC\GLM\CORE\FUNC_INTEGER.HPP
C:\USERS\саша\DESKTOP\четвертый мг х_х\RAYTRACER\SRC\GLM\CORE\FUNC_INTEGER.INL
D:\VS\VC\INCLUDE\INTRIN.H
D:\VS\VC\INCLUDE\SETJMP.H
D:\VS\VC\INCLUDE\AMMINTRIN.H
D:\VS\VC\INCLUDE\MM3DNOW.H
C:\USERS\саша\DESKTOP\четвертый мг х_х\RAYTRACER\SRC\GLM\CORE\FUNC_NOISE.HPP
C:\USERS\саша\DESKTOP\четвертый мг х_х\RAYTRACER\SRC\GLM\CORE\FUNC_NOISE.INL
C:\USERS\саша\DESKTOP\четвертый мг х_х\RAYTRACER\SRC\TYPES.H
D:\VS\VC\INCLUDE\VECTOR
D:\VS\VC\INCLUDE\XMEMORY
D:\VS\VC\INCLUDE\XMEMORY0
D:\VS\VC\INCLUDE\NEW
D:\VS\VC\INCLUDE\EXCEPTION
D:\VS\VC\INCLUDE\EH.H
D:\VS\VC\INCLUDE\STRING.H
D:\VS\VC\INCLUDE\XUTILITY
D:\VS\VC\INCLUDE\UTILITY
D:\VS\VC\INCLUDE\IOSFWD
D:\VS\VC\INCLUDE\CSTRING
D:\VS\VC\INCLUDE\CRTDBG.H
D:\VS\VC\INCLUDE\TYPE_TRAITS
D:\VS\VC\INCLUDE\XREFWRAP
D:\VS\VC\INCLUDE\XATOMIC0.H
D:\VS\VC\INCLUDE\STDEXCEPT
D:\VS\VC\INCLUDE\XSTRING
C:\USERS\саша\DESKTOP\четвертый мг х_х\RAYTRACER\SRC\SCENE.H
D:\VS\VC\INCLUDE\STRING
D:\VS\VC\INCLUDE\ITERATOR
D:\VS\VC\INCLUDE\ISTREAM
D:\VS\VC\INCLUDE\OSTREAM
D:\VS\VC\INCLUDE\IOS
D:\VS\VC\INCLUDE\XLOCNUM
D:\VS\VC\INCLUDE\STREAMBUF
D:\VS\VC\INCLUDE\XIOSBASE
D:\VS\VC\INCLUDE\XLOCALE
D:\VS\VC\INCLUDE\TYPEINFO
D:\VS\VC\INCLUDE\XLOCINFO
D:\VS\VC\INCLUDE\XLOCINFO.H
D:\VS\VC\INCLUDE\CTYPE.H
D:\VS\VC\INCLUDE\LOCALE.H
D:\VS\VC\INCLUDE\XDEBUG
D:\VS\VC\INCLUDE\XFACET
D:\VS\VC\INCLUDE\SYSTEM_ERROR
D:\VS\VC\INCLUDE\CERRNO
D:\VS\VC\INCLUDE\ERRNO.H
D:\VS\VC\INCLUDE\SHARE.H
C:\USERS\саша\DESKTOP\четвертый мг х_х\RAYTRACER\SRC\L3DS\L3DS.H
D:\VS\VC\ATLMFC\INCLUDE\ATLIMAGE.H
D:\VS\VC\ATLMFC\INCLUDE\ATLDEF.H
D:\VS\VC\ATLMFC\INCLUDE\ATLRC.H
D:\VS\VC\INCLUDE\NEW.H
D:\VS\VC\ATLMFC\INCLUDE\ATLBASE.H
C:\PROGRAM FILES (X86)\WINDOWS KITS\8.1\INCLUDE\UM\WINSOCK2.H
C:\PROGRAM FILES (X86)\WINDOWS KITS\8.1\INCLUDE\SHARED\WINAPIFAMILY.H
C:\PROGRAM FILES (X86)\WINDOWS KITS\8.1\INCLUDE\UM\WINDOWS.H
C:\PROGRAM FILES (X86)\WINDOWS KITS\8.1\INCLUDE\SHARED\SDKDDKVER.H
D:\VS\VC\INCLUDE\EXCPT.H
D:\VS\VC\INCLUDE\STDARG.H
C:\PROGRAM FILES (X86)\WINDOWS KITS\8.1\INCLUDE\SHARED\WINDEF.H
C:\PROGRAM FILES (X86)\WINDOWS KITS\8.1\INCLUDE\SHARED\MINWINDEF.H
C:\PROGRAM FILES (X86)\WINDOWS KITS\8.1\INCLUDE\SHARED\SPECSTRINGS.H
C:\PROGRAM FILES (X86)\WINDOWS KITS\8.1\INCLUDE\SHARED\SPECSTRINGS_STRICT.H
C:\PROGRAM FILES (X86)\WINDOWS KITS\8.1\INCLUDE\SHARED\SPECSTRINGS_UNDEF.H
C:\PROGRAM FILES (X86)\WINDOWS KITS\8.1\INCLUDE\SHARED\DRIVERSPECS.H
C:\PROGRAM FILES (X86)\WINDOWS KITS\8.1\INCLUDE\SHARED\SDV_DRIVERSPECS.H
C:\PROGRAM FILES (X86)\WINDOWS KITS\8.1\INCLUDE\UM\WINNT.H
C:\PROGRAM FILES (X86)\WINDOWS KITS\8.1\INCLUDE\SHARED\KERNELSPECS.H
C:\PROGRAM FILES (X86)\WINDOWS KITS\8.1\INCLUDE\SHARED\BASETSD.H
C:\PROGRAM FILES (X86)\WINDOWS KITS\8.1\INCLUDE\SHARED\GUIDDEF.H
C:\PROGRAM FILES (X86)\WINDOWS KITS\8.1\INCLUDE\SHARED\PSHPACK4.H
C:\PROGRAM FILES (X86)\WINDOWS KITS\8.1\INCLUDE\SHARED\POPPACK.H
C:\PROGRAM FILES (X86)\WINDOWS KITS\8.1\INCLUDE\SHARED\PSHPACK2.H
C:\PROGRAM FILES (X86)\WINDOWS KITS\8.1\INCLUDE\SHARED\PSHPACK8.H
C:\PROGRAM FILES (X86)\WINDOWS KITS\8.1\INCLUDE\SHARED\APISET.H
C:\PROGRAM FILES (X86)\WINDOWS KITS\8.1\INCLUDE\SHARED\KTMTYPES.H
C:\PROGRAM FILES (X86)\WINDOWS KITS\8.1\INCLUDE\UM\WINBASE.H
C:\PROGRAM FILES (X86)\WINDOWS KITS\8.1\INCLUDE\SHARED\APISETCCONV.H
C:\PROGRAM FILES (X86)\WINDOWS KITS\8.1\INCLUDE\UM\MINWINBASE.H
C:\PROGRAM FILES (X86)\WINDOWS KITS\8.1\INCLUDE\UM\PROCESSENV.H
C:\PROGRAM FILES (X86)\WINDOWS KITS\8.1\INCLUDE\UM\FILEAPI.H
C:\PROGRAM FILES (X86)\WINDOWS KITS\8.1\INCLUDE\UM\DEBUGAPI.H
C:\PROGRAM FILES (X86)\WINDOWS KITS\8.1\INCLUDE\UM\UTILAPISET.H
C:\PROGRAM FILES (X86)\WINDOWS KITS\8.1\INCLUDE\UM\HANDLEAPI.H
C:\PROGRAM FILES (X86)\WINDOWS KITS\8.1\INCLUDE\UM\ERRHANDLINGAPI.H
C:\PROGRAM FILES (X86)\WINDOWS KITS\8.1\INCLUDE\UM\FIBERSAPI.H
C:\PROGRAM FILES (X86)\WINDOWS KITS\8.1\INCLUDE\UM\NAMEDPIPEAPI.H
C:\PROGRAM FILES (X86)\WINDOWS KITS\8.1\INCLUDE\UM\PROFILEAPI.H
C:\PROGRAM FILES (X86)\WINDOWS KITS\8.1\INCLUDE\UM\HEAPAPI.H
C:\PROGRAM FILES (X86)\WINDOWS KITS\8.1\INCLUDE\UM\IOAPISET.H
C:\PROGRAM FILES (X86)\WINDOWS KITS\8.1\INCLUDE\UM\SYNCHAPI.H
C:\PROGRAM FILES (X86)\WINDOWS KITS\8.1\INCLUDE\UM\INTERLOCKEDAPI.H
C:\PROGRAM FILES (X86)\WINDOWS KITS\8.1\INCLUDE\UM\PROCESSTHREADSAPI.H
C:\PROGRAM FILES (X86)\WINDOWS KITS\8.1\INCLUDE\UM\SYSINFOAPI.H
C:\PROGRAM FILES (X86)\WINDOWS KITS\8.1\INCLUDE\UM\MEMORYAPI.H
C:\PROGRAM FILES (X86)\WINDOWS KITS\8.1\INCLUDE\UM\THREADPOOLLEGACYAPISET.H
C:\PROGRAM FILES (X86)\WINDOWS KITS\8.1\INCLUDE\UM\THREADPOOLAPISET.H
C:\PROGRAM FILES (X86)\WINDOWS KITS\8.1\INCLUDE\UM\BEMAPISET.H
C:\PROGRAM FILES (X86)\WINDOWS KITS\8.1\INCLUDE\UM\JOBAPI.H
C:\PROGRAM FILES (X86)\WINDOWS KITS\8.1\INCLUDE\UM\WOW64APISET.H
C:\PROGRAM FILES (X86)\WINDOWS KITS\8.1\INCLUDE\UM\LIBLOADERAPI.H
C:\PROGRAM FILES (X86)\WINDOWS KITS\8.1\INCLUDE\UM\SECURITYBASEAPI.H
C:\PROGRAM FILES (X86)\WINDOWS KITS\8.1\INCLUDE\UM\NAMESPACEAPI.H
C:\PROGRAM FILES (X86)\WINDOWS KITS\8.1\INCLUDE\UM\SYSTEMTOPOLOGYAPI.H
C:\PROGRAM FILES (X86)\WINDOWS KITS\8.1\INCLUDE\UM\PROCESSTOPOLOGYAPI.H
C:\PROGRAM FILES (X86)\WINDOWS KITS\8.1\INCLUDE\UM\SECURITYAPPCONTAINER.H
C:\PROGRAM FILES (X86)\WINDOWS KITS\8.1\INCLUDE\UM\REALTIMEAPISET.H
C:\PROGRAM FILES (X86)\WINDOWS KITS\8.1\INCLUDE\SHARED\WINERROR.H
C:\PROGRAM FILES (X86)\WINDOWS KITS\8.1\INCLUDE\UM\TIMEZONEAPI.H
C:\PROGRAM FILES (X86)\WINDOWS KITS\8.1\INCLUDE\UM\WINGDI.H
C:\PROGRAM FILES (X86)\WINDOWS KITS\8.1\INCLUDE\SHARED\PSHPACK1.H
C:\PROGRAM FILES (X86)\WINDOWS KITS\8.1\INCLUDE\UM\WINUSER.H
C:\PROGRAM FILES (X86)\WINDOWS KITS\8.1\INCLUDE\SHARED\TVOUT.H
C:\PROGRAM FILES (X86)\WINDOWS KITS\8.1\INCLUDE\UM\WINNLS.H
C:\PROGRAM FILES (X86)\WINDOWS KITS\8.1\INCLUDE\UM\DATETIMEAPI.H
C:\PROGRAM FILES (X86)\WINDOWS KITS\8.1\INCLUDE\UM\STRINGAPISET.H
C:\PROGRAM FILES (X86)\WINDOWS KITS\8.1\INCLUDE\UM\WINCON.H
C:\PROGRAM FILES (X86)\WINDOWS KITS\8.1\INCLUDE\UM\CONSOLEAPI.H
C:\PROGRAM FILES (X86)\WINDOWS KITS\8.1\INCLUDE\UM\WINVER.H
C:\PROGRAM FILES (X86)\WINDOWS KITS\8.1\INCLUDE\UM\VERRSRC.H
C:\PROGRAM FILES (X86)\WINDOWS KITS\8.1\INCLUDE\UM\WINREG.H
C:\PROGRAM FILES (X86)\WINDOWS KITS\8.1\INCLUDE\UM\REASON.H
C:\PROGRAM FILES (X86)\WINDOWS KITS\8.1\INCLUDE\UM\WINNETWK.H
C:\PROGRAM FILES (X86)\WINDOWS KITS\8.1\INCLUDE\SHARED\WNNC.H
C:\PROGRAM FILES (X86)\WINDOWS KITS\8.1\INCLUDE\SHARED\STRALIGN.H
C:\PROGRAM FILES (X86)\WINDOWS KITS\8.1\INCLUDE\UM\WINSVC.H
C:\PROGRAM FILES (X86)\WINDOWS KITS\8.1\INCLUDE\UM\IMM.H
C:\PROGRAM FILES (X86)\WINDOWS KITS\8.1\INCLUDE\UM\IME_CMODES.H
C:\PROGRAM FILES (X86)\WINDOWS KITS\8.1\INCLUDE\SHARED\WS2DEF.H
C:\PROGRAM FILES (X86)\WINDOWS KITS\8.1\INCLUDE\SHARED\INADDR.H
C:\PROGRAM FILES (X86)\WINDOWS KITS\8.1\INCLUDE\SHARED\QOS.H
D:\VS\VC\ATLMFC\INCLUDE\ATLCORE.H
C:\PROGRAM FILES (X86)\WINDOWS KITS\8.1\INCLUDE\UM\OLE2.H
C:\PROGRAM FILES (X86)\WINDOWS KITS\8.1\INCLUDE\UM\OBJBASE.H
C:\PROGRAM FILES (X86)\WINDOWS KITS\8.1\INCLUDE\SHARED\RPC.H
C:\PROGRAM FILES (X86)\WINDOWS KITS\8.1\INCLUDE\SHARED\RPCDCE.H
C:\PROGRAM FILES (X86)\WINDOWS KITS\8.1\INCLUDE\SHARED\RPCDCEP.H
C:\PROGRAM FILES (X86)\WINDOWS KITS\8.1\INCLUDE\UM\RPCNSI.H
C:\PROGRAM FILES (X86)\WINDOWS KITS\8.1\INCLUDE\SHARED\RPCNTERR.H
C:\PROGRAM FILES (X86)\WINDOWS KITS\8.1\INCLUDE\SHARED\RPCASYNC.H
C:\PROGRAM FILES (X86)\WINDOWS KITS\8.1\INCLUDE\SHARED\RPCNDR.H
C:\PROGRAM FILES (X86)\WINDOWS KITS\8.1\INCLUDE\UM\RPCNSIP.H
C:\PROGRAM FILES (X86)\WINDOWS KITS\8.1\INCLUDE\SHARED\RPCSAL.H
C:\PROGRAM FILES (X86)\WINDOWS KITS\8.1\INCLUDE\UM\COMBASEAPI.H
C:\PROGRAM FILES (X86)\WINDOWS KITS\8.1\INCLUDE\SHARED\WTYPESBASE.H
C:\PROGRAM FILES (X86)\WINDOWS KITS\8.1\INCLUDE\UM\UNKNWNBASE.H
C:\PROGRAM FILES (X86)\WINDOWS KITS\8.1\INCLUDE\UM\OBJIDLBASE.H
C:\PROGRAM FILES (X86)\WINDOWS KITS\8.1\INCLUDE\UM\CGUID.H
C:\PROGRAM FILES (X86)\WINDOWS KITS\8.1\INCLUDE\UM\OBJIDL.H
C:\PROGRAM FILES (X86)\WINDOWS KITS\8.1\INCLUDE\UM\UNKNWN.H
C:\PROGRAM FILES (X86)\WINDOWS KITS\8.1\INCLUDE\SHARED\WTYPES.H
C:\PROGRAM FILES (X86)\WINDOWS KITS\8.1\INCLUDE\UM\URLMON.H
C:\PROGRAM FILES (X86)\WINDOWS KITS\8.1\INCLUDE\UM\OLEIDL.H
C:\PROGRAM FILES (X86)\WINDOWS KITS\8.1\INCLUDE\UM\SERVPROV.H
C:\PROGRAM FILES (X86)\WINDOWS KITS\8.1\INCLUDE\UM\MSXML.H
C:\PROGRAM FILES (X86)\WINDOWS KITS\8.1\INCLUDE\UM\OAIDL.H
C:\PROGRAM FILES (X86)\WINDOWS KITS\8.1\INCLUDE\UM\PROPIDL.H
C:\PROGRAM FILES (X86)\WINDOWS KITS\8.1\INCLUDE\UM\OLEAUTO.H
D:\VS\VC\INCLUDE\TCHAR.H
D:\VS\VC\INCLUDE\MBSTRING.H
D:\VS\VC\ATLMFC\INCLUDE\ATLCHECKED.H
D:\VS\VC\ATLMFC\INCLUDE\ATLEXCEPT.H
D:\VS\VC\ATLMFC\INCLUDE\ATLTRACE.H
D:\VS\VC\ATLMFC\INCLUDE\ATLCONV.H
D:\VS\VC\ATLMFC\INCLUDE\ATLALLOC.H
D:\VS\VC\ATLMFC\INCLUDE\ATLSIMPCOLL.H
D:\VS\VC\ATLMFC\INCLUDE\ATLWINVERAPI.H
D:\VS\VC\ATLMFC\INCLUDE\ATLCOMCLI.H
C:\PROGRAM FILES (X86)\WINDOWS KITS\8.1\INCLUDE\UM\OLECTL.H
C:\PROGRAM FILES (X86)\WINDOWS KITS\8.1\INCLUDE\UM\OCIDL.H
C:\PROGRAM FILES (X86)\WINDOWS KITS\8.1\INCLUDE\UM\COMCAT.H
D:\VS\VC\ATLMFC\INCLUDE\ATLIFACE.H
C:\PROGRAM FILES (X86)\WINDOWS KITS\8.1\INCLUDE\UM\OLEACC.H
D:\VS\VC\INCLUDE\PROCESS.H
C:\PROGRAM FILES (X86)\WINDOWS KITS\8.1\INCLUDE\UM\SHLWAPI.H
C:\PROGRAM FILES (X86)\WINDOWS KITS\8.1\INCLUDE\UM\SHTYPES.H
D:\VS\VC\ATLMFC\INCLUDE\ATLTRANSACTIONMANAGER.H
C:\PROGRAM FILES (X86)\WINDOWS KITS\8.1\INCLUDE\UM\KTMW32.H
D:\VS\VC\ATLMFC\INCLUDE\STATREG.H
D:\VS\VC\ATLMFC\INCLUDE\ATLSTR.H
D:\VS\VC\ATLMFC\INCLUDE\CSTRINGT.H
D:\VS\VC\ATLMFC\INCLUDE\ATLSIMPSTR.H
D:\VS\VC\ATLMFC\INCLUDE\ATLMEM.H
D:\VS\VC\ATLMFC\INCLUDE\ATLCOMMEM.H
D:\VS\VC\ATLMFC\INCLUDE\ATLTYPES.H
C:\PROGRAM FILES (X86)\WINDOWS KITS\8.1\INCLUDE\UM\GDIPLUS.H
C:\PROGRAM FILES (X86)\WINDOWS KITS\8.1\INCLUDE\UM\GDIPLUSMEM.H
C:\PROGRAM FILES (X86)\WINDOWS KITS\8.1\INCLUDE\UM\GDIPLUSBASE.H
C:\PROGRAM FILES (X86)\WINDOWS KITS\8.1\INCLUDE\UM\GDIPLUSENUMS.H
C:\PROGRAM FILES (X86)\WINDOWS KITS\8.1\INCLUDE\UM\GDIPLUSTYPES.H
C:\PROGRAM FILES (X86)\WINDOWS KITS\8.1\INCLUDE\UM\GDIPLUSINIT.H
C:\PROGRAM FILES (X86)\WINDOWS KITS\8.1\INCLUDE\UM\GDIPLUSPIXELFORMATS.H
C:\PROGRAM FILES (X86)\WINDOWS KITS\8.1\INCLUDE\UM\GDIPLUSCOLOR.H
C:\PROGRAM FILES (X86)\WINDOWS KITS\8.1\INCLUDE\UM\GDIPLUSMETAHEADER.H
C:\PROGRAM FILES (X86)\WINDOWS KITS\8.1\INCLUDE\UM\GDIPLUSIMAGING.H
C:\PROGRAM FILES (X86)\WINDOWS KITS\8.1\INCLUDE\UM\GDIPLUSCOLORMATRIX.H
C:\PROGRAM FILES (X86)\WINDOWS KITS\8.1\INCLUDE\UM\GDIPLUSGPSTUBS.H
C:\PROGRAM FILES (X86)\WINDOWS KITS\8.1\INCLUDE\UM\GDIPLUSHEADERS.H
C:\PROGRAM FILES (X86)\WINDOWS KITS\8.1\INCLUDE\UM\GDIPLUSFLAT.H
C:\PROGRAM FILES (X86)\WINDOWS KITS\8.1\INCLUDE\UM\GDIPLUSIMAGEATTRIBUTES.H
C:\PROGRAM FILES (X86)\WINDOWS KITS\8.1\INCLUDE\UM\GDIPLUSMATRIX.H
C:\PROGRAM FILES (X86)\WINDOWS KITS\8.1\INCLUDE\UM\GDIPLUSBRUSH.H
C:\PROGRAM FILES (X86)\WINDOWS KITS\8.1\INCLUDE\UM\GDIPLUSPEN.H
C:\PROGRAM FILES (X86)\WINDOWS KITS\8.1\INCLUDE\UM\GDIPLUSSTRINGFORMAT.H
C:\PROGRAM FILES (X86)\WINDOWS KITS\8.1\INCLUDE\UM\GDIPLUSPATH.H
C:\PROGRAM FILES (X86)\WINDOWS KITS\8.1\INCLUDE\UM\GDIPLUSLINECAPS.H
C:\PROGRAM FILES (X86)\WINDOWS KITS\8.1\INCLUDE\UM\GDIPLUSGRAPHICS.H
C:\PROGRAM FILES (X86)\WINDOWS KITS\8.1\INCLUDE\UM\GDIPLUSMETAFILE.H
C:\PROGRAM FILES (X86)\WINDOWS KITS\8.1\INCLUDE\UM\GDIPLUSCACHEDBITMAP.H
C:\PROGRAM FILES (X86)\WINDOWS KITS\8.1\INCLUDE\UM\GDIPLUSREGION.H
C:\PROGRAM FILES (X86)\WINDOWS KITS\8.1\INCLUDE\UM\GDIPLUSFONTCOLLECTION.H
C:\PROGRAM FILES (X86)\WINDOWS KITS\8.1\INCLUDE\UM\GDIPLUSFONTFAMILY.H
C:\PROGRAM FILES (X86)\WINDOWS KITS\8.1\INCLUDE\UM\GDIPLUSFONT.H
C:\PROGRAM FILES (X86)\WINDOWS KITS\8.1\INCLUDE\UM\GDIPLUSBITMAP.H
C:\PROGRAM FILES (X86)\WINDOWS KITS\8.1\INCLUDE\UM\GDIPLUSIMAGECODEC.H
C:\WINDOWS\GLOBALIZATION\SORTING\SORTDEFAULT.NLS
D:\VS\VC\BIN\1049\CLUI.DLL
C:\WINDOWS\SYSTEM32\RSAENH.DLL
C:\WINDOWS\SYSTEM32\TZRES.DLL
C:\USERS\саша\DESKTOP\четвертый мг х_х\RAYTRACER\SRC\COMMONMATH\MATH.H
D:\VS\VC\INCLUDE\ALGORITHM
D:\VS\VC\INCLUDE\LIST
C:\USERS\саша\DESKTOP\четвертый мг х_х\RAYTRACER\SRC\COMMONMATH\AXISALIGNEDBOX.H
C:\USERS\саша\DESKTOP\четвертый мг х_х\RAYTRACER\SRC\COMMONMATH\VECTOR3.H
D:\VS\VC\INCLUDE\IOSTREAM
C:\USERS\саша\DESKTOP\четвертый мг х_х\RAYTRACER\SRC\COMMONMATH\QUATERNION.H
C:\USERS\саша\DESKTOP\четвертый мг х_х\RAYTRACER\SRC\COMMONMATH\MATRIX4.H
C:\USERS\саша\DESKTOP\четвертый мг х_х\RAYTRACER\SRC\COMMONMATH\MATRIX3.H
C:\USERS\саша\DESKTOP\четвертый мг х_х\RAYTRACER\SRC\COMMONMATH\VECTOR4.H
C:\USERS\саша\DESKTOP\четвертый мг х_х\RAYTRACER\SRC\COMMONMATH\PLANE.H
D:\VS\VC\BIN\MSPDBSRV.EXE
D:\VS\VC\INCLUDE\OMP.H
D:\VS\VC\INCLUDE\TUPLE
C:\USERS\саша\DESKTOP\четвертый мг х_х\RAYTRACER\SRC\COMMONMATH\RAY.H
^C:\USERS\Саша\DESKTOP\ЧЕТВЕРТЫЙ МГ Х_Х\RAYTRACER\SRC\SCENE.CPP
D:\VS\VC\INCLUDE\IOSTREAM
D:\VS\VC\INCLUDE\ISTREAM
D:\VS\VC\INCLUDE\OSTREAM
D:\VS\VC\INCLUDE\IOS
D:\VS\VC\INCLUDE\XLOCNUM
D:\VS\VC\INCLUDE\CLIMITS
D:\VS\VC\INCLUDE\YVALS.H
D:\VS\VC\INCLUDE\XKEYCHECK.H
D:\VS\VC\INCLUDE\CRTDEFS.H
D:\VS\VC\INCLUDE\SAL.H
D:\VS\VC\INCLUDE\CONCURRENCYSAL.H
D:\VS\VC\INCLUDE\VADEFS.H
D:\VS\VC\INCLUDE\USE_ANSI.H
D:\VS\VC\INCLUDE\LIMITS.H
D:\VS\VC\INCLUDE\CMATH
D:\VS\VC\INCLUDE\MATH.H
D:\VS\VC\INCLUDE\XTGMATH.H
D:\VS\VC\INCLUDE\XTR1COMMON
D:\VS\VC\INCLUDE\CSTDIO
D:\VS\VC\INCLUDE\STDIO.H
D:\VS\VC\INCLUDE\SWPRINTF.INL
D:\VS\VC\INCLUDE\CSTDLIB
D:\VS\VC\INCLUDE\STDLIB.H
D:\VS\VC\INCLUDE\STREAMBUF
D:\VS\VC\INCLUDE\XIOSBASE
D:\VS\VC\INCLUDE\XLOCALE
D:\VS\VC\INCLUDE\CSTRING
D:\VS\VC\INCLUDE\STRING.H
D:\VS\VC\INCLUDE\STDEXCEPT
D:\VS\VC\INCLUDE\EXCEPTION
D:\VS\VC\INCLUDE\XSTDDEF
D:\VS\VC\INCLUDE\CSTDDEF
D:\VS\VC\INCLUDE\STDDEF.H
D:\VS\VC\INCLUDE\INITIALIZER_LIST
D:\VS\VC\INCLUDE\EH.H
D:\VS\VC\INCLUDE\MALLOC.H
D:\VS\VC\INCLUDE\XSTRING
D:\VS\VC\INCLUDE\XMEMORY0
D:\VS\VC\INCLUDE\LIMITS
D:\VS\VC\INCLUDE\YMATH.H
D:\VS\VC\INCLUDE\CFLOAT
D:\VS\VC\INCLUDE\FLOAT.H
D:\VS\VC\INCLUDE\CRTWRN.H
D:\VS\VC\INCLUDE\CWCHAR
D:\VS\VC\INCLUDE\WCHAR.H
D:\VS\VC\INCLUDE\WTIME.INL
D:\VS\VC\INCLUDE\NEW
D:\VS\VC\INCLUDE\XUTILITY
D:\VS\VC\INCLUDE\UTILITY
D:\VS\VC\INCLUDE\IOSFWD
D:\VS\VC\INCLUDE\CRTDBG.H
D:\VS\VC\INCLUDE\TYPE_TRAITS
D:\VS\VC\INCLUDE\XREFWRAP
D:\VS\VC\INCLUDE\XATOMIC0.H
D:\VS\VC\INCLUDE\INTRIN.H
D:\VS\VC\INCLUDE\SETJMP.H
D:\VS\VC\INCLUDE\IMMINTRIN.H
D:\VS\VC\INCLUDE\WMMINTRIN.H
D:\VS\VC\INCLUDE\NMMINTRIN.H
D:\VS\VC\INCLUDE\SMMINTRIN.H
D:\VS\VC\INCLUDE\TMMINTRIN.H
D:\VS\VC\INCLUDE\PMMINTRIN.H
D:\VS\VC\INCLUDE\EMMINTRIN.H
D:\VS\VC\INCLUDE\XMMINTRIN.H
D:\VS\VC\INCLUDE\MMINTRIN.H
D:\VS\VC\INCLUDE\AMMINTRIN.H
D:\VS\VC\INCLUDE\MM3DNOW.H
D:\VS\VC\INCLUDE\TYPEINFO
D:\VS\VC\INCLUDE\XLOCINFO
D:\VS\VC\INCLUDE\XLOCINFO.H
D:\VS\VC\INCLUDE\CTYPE.H
D:\VS\VC\INCLUDE\LOCALE.H
D:\VS\VC\INCLUDE\XDEBUG
D:\VS\VC\INCLUDE\XMEMORY
D:\VS\VC\INCLUDE\XFACET
D:\VS\VC\INCLUDE\SYSTEM_ERROR
D:\VS\VC\INCLUDE\CERRNO
D:\VS\VC\INCLUDE\ERRNO.H
D:\VS\VC\INCLUDE\SHARE.H
C:\USERS\саша\DESKTOP\четвертый мг х_х\RAYTRACER\SRC\SCENE.H
D:\VS\VC\INCLUDE\STRING
D:\VS\VC\INCLUDE\ITERATOR
C:\USERS\саша\DESKTOP\четвертый мг х_х\RAYTRACER\SRC\TYPES.H
C:\USERS\саша\DESKTOP\четвертый мг х_х\RAYTRACER\SRC\GLM\GLM.HPP
C:\USERS\саша\DESKTOP\четвертый мг х_х\RAYTRACER\SRC\GLM\CORE\_FIXES.HPP
C:\USERS\саша\DESKTOP\четвертый мг х_х\RAYTRACER\SRC\GLM\CORE\SETUP.HPP
C:\USERS\саша\DESKTOP\четвертый мг х_х\RAYTRACER\SRC\GLM\CORE\_DETAIL.HPP
D:\VS\VC\INCLUDE\CASSERT
D:\VS\VC\INCLUDE\ASSERT.H
C:\USERS\саша\DESKTOP\четвертый мг х_х\RAYTRACER\SRC\GLM\CORE\_VECTORIZE.HPP
C:\USERS\саша\DESKTOP\четвертый мг х_х\RAYTRACER\SRC\GLM\CORE\TYPE.HPP
C:\USERS\саша\DESKTOP\четвертый мг х_х\RAYTRACER\SRC\GLM\CORE\TYPE_HALF.HPP
C:\USERS\саша\DESKTOP\четвертый мг х_х\RAYTRACER\SRC\GLM\CORE\TYPE_HALF.INL
C:\USERS\саша\DESKTOP\четвертый мг х_х\RAYTRACER\SRC\GLM\CORE\TYPE_FLOAT.HPP
C:\USERS\саша\DESKTOP\четвертый мг х_х\RAYTRACER\SRC\GLM\CORE\TYPE_INT.HPP
C:\USERS\саша\DESKTOP\четвертый мг х_х\RAYTRACER\SRC\GLM\CORE\TYPE_GENTYPE.HPP
C:\USERS\саша\DESKTOP\четвертый мг х_х\RAYTRACER\SRC\GLM\CORE\TYPE_SIZE.HPP
C:\USERS\саша\DESKTOP\четвертый мг х_х\RAYTRACER\SRC\GLM\CORE\TYPE_VEC1.HPP
C:\USERS\саша\DESKTOP\четвертый мг х_х\RAYTRACER\SRC\GLM\CORE\TYPE_VEC.HPP
C:\USERS\саша\DESKTOP\четвертый мг х_х\RAYTRACER\SRC\GLM\CORE\_SWIZZLE.HPP
C:\USERS\саша\DESKTOP\четвертый мг х_х\RAYTRACER\SRC\GLM\CORE\_SWIZZLE_FUNC.HPP
C:\USERS\саша\DESKTOP\четвертый мг х_х\RAYTRACER\SRC\GLM\CORE\TYPE_VEC1.INL
C:\USERS\саша\DESKTOP\четвертый мг х_х\RAYTRACER\SRC\GLM\CORE\TYPE_VEC2.HPP
C:\USERS\саша\DESKTOP\четвертый мг х_х\RAYTRACER\SRC\GLM\CORE\TYPE_VEC2.INL
C:\USERS\саша\DESKTOP\четвертый мг х_х\RAYTRACER\SRC\GLM\CORE\TYPE_VEC3.HPP
C:\USERS\саша\DESKTOP\четвертый мг х_х\RAYTRACER\SRC\GLM\CORE\TYPE_VEC3.INL
C:\USERS\саша\DESKTOP\четвертый мг х_х\RAYTRACER\SRC\GLM\CORE\TYPE_VEC4.HPP
C:\USERS\саша\DESKTOP\четвертый мг х_х\RAYTRACER\SRC\GLM\CORE\TYPE_VEC4.INL
C:\USERS\саша\DESKTOP\четвертый мг х_х\RAYTRACER\SRC\GLM\CORE\TYPE_MAT2X2.HPP
C:\USERS\саша\DESKTOP\четвертый мг х_х\RAYTRACER\SRC\GLM\CORE\TYPE_MAT.HPP
C:\USERS\саша\DESKTOP\четвертый мг х_х\RAYTRACER\SRC\GLM\CORE\TYPE_MAT2X2.INL
C:\USERS\саша\DESKTOP\четвертый мг х_х\RAYTRACER\SRC\GLM\CORE\TYPE_MAT2X3.HPP
C:\USERS\саша\DESKTOP\четвертый мг х_х\RAYTRACER\SRC\GLM\CORE\TYPE_MAT2X3.INL
C:\USERS\саша\DESKTOP\четвертый мг х_х\RAYTRACER\SRC\GLM\CORE\TYPE_MAT2X4.HPP
C:\USERS\саша\DESKTOP\четвертый мг х_х\RAYTRACER\SRC\GLM\CORE\TYPE_MAT2X4.INL
C:\USERS\саша\DESKTOP\четвертый мг х_х\RAYTRACER\SRC\GLM\CORE\TYPE_MAT3X2.HPP
C:\USERS\саша\DESKTOP\четвертый мг х_х\RAYTRACER\SRC\GLM\CORE\TYPE_MAT3X2.INL
C:\USERS\саша\DESKTOP\четвертый мг х_х\RAYTRACER\SRC\GLM\CORE\TYPE_MAT3X3.HPP
C:\USERS\саша\DESKTOP\четвертый мг х_х\RAYTRACER\SRC\GLM\CORE\TYPE_MAT3X3.INL
C:\USERS\саша\DESKTOP\четвертый мг х_х\RAYTRACER\SRC\GLM\CORE\TYPE_MAT3X4.HPP
C:\USERS\саша\DESKTOP\четвертый мг х_х\RAYTRACER\SRC\GLM\CORE\TYPE_MAT3X4.INL
C:\USERS\саша\DESKTOP\четвертый мг х_х\RAYTRACER\SRC\GLM\CORE\TYPE_MAT4X2.HPP
C:\USERS\саша\DESKTOP\четвертый мг х_х\RAYTRACER\SRC\GLM\CORE\TYPE_MAT4X2.INL
C:\USERS\саша\DESKTOP\четвертый мг х_х\RAYTRACER\SRC\GLM\CORE\TYPE_MAT4X3.HPP
C:\USERS\саша\DESKTOP\четвертый мг х_х\RAYTRACER\SRC\GLM\CORE\TYPE_MAT4X3.INL
C:\USERS\саша\DESKTOP\четвертый мг х_х\RAYTRACER\SRC\GLM\CORE\TYPE_MAT4X4.HPP
C:\USERS\саша\DESKTOP\четвертый мг х_х\RAYTRACER\SRC\GLM\CORE\TYPE_MAT4X4.INL
C:\USERS\саша\DESKTOP\четвертый мг х_х\RAYTRACER\SRC\GLM\CORE\FUNC_TRIGONOMETRIC.HPP
C:\USERS\саша\DESKTOP\четвертый мг х_х\RAYTRACER\SRC\GLM\CORE\FUNC_TRIGONOMETRIC.INL
C:\USERS\саша\DESKTOP\четвертый мг х_х\RAYTRACER\SRC\GLM\CORE\FUNC_EXPONENTIAL.HPP
C:\USERS\саша\DESKTOP\четвертый мг х_х\RAYTRACER\SRC\GLM\CORE\FUNC_EXPONENTIAL.INL
C:\USERS\саша\DESKTOP\четвертый мг х_х\RAYTRACER\SRC\GLM\CORE\FUNC_COMMON.HPP
C:\USERS\саша\DESKTOP\четвертый мг х_х\RAYTRACER\SRC\GLM\CORE\FUNC_COMMON.INL
C:\USERS\саша\DESKTOP\четвертый мг х_х\RAYTRACER\SRC\GLM\CORE\FUNC_PACKING.HPP
C:\USERS\саша\DESKTOP\четвертый мг х_х\RAYTRACER\SRC\GLM\CORE\FUNC_PACKING.INL
C:\USERS\саша\DESKTOP\четвертый мг х_х\RAYTRACER\SRC\GLM\CORE\FUNC_GEOMETRIC.HPP
C:\USERS\саша\DESKTOP\четвертый мг х_х\RAYTRACER\SRC\GLM\CORE\FUNC_GEOMETRIC.INL
C:\USERS\саша\DESKTOP\четвертый мг х_х\RAYTRACER\SRC\GLM\CORE\FUNC_MATRIX.HPP
C:\USERS\саша\DESKTOP\четвертый мг х_х\RAYTRACER\SRC\GLM\CORE\FUNC_MATRIX.INL
C:\USERS\саша\DESKTOP\четвертый мг х_х\RAYTRACER\SRC\GLM\CORE\FUNC_VECTOR_RELATIONAL.HPP
C:\USERS\саша\DESKTOP\четвертый мг х_х\RAYTRACER\SRC\GLM\CORE\FUNC_VECTOR_RELATIONAL.INL
C:\USERS\саша\DESKTOP\четвертый мг х_х\RAYTRACER\SRC\GLM\CORE\FUNC_INTEGER.HPP
C:\USERS\саша\DESKTOP\четвертый мг х_х\RAYTRACER\SRC\GLM\CORE\FUNC_INTEGER.INL
C:\USERS\саша\DESKTOP\четвертый мг х_х\RAYTRACER\SRC\GLM\CORE\FUNC_NOISE.HPP
C:\USERS\саша\DESKTOP\четвертый мг х_х\RAYTRACER\SRC\GLM\CORE\FUNC_NOISE.INL
D:\VS\VC\INCLUDE\VECTOR
C:\USERS\саша\DESKTOP\четвертый мг х_х\RAYTRACER\SRC\L3DS\L3DS.H
C:\USERS\саша\DESKTOP\четвертый мг х_х\RAYTRACER\SRC\COMMONMATH\MATH.H
D:\VS\VC\INCLUDE\ALGORITHM
D:\VS\VC\INCLUDE\LIST
C:\WINDOWS\GLOBALIZATION\SORTING\SORTDEFAULT.NLS
D:\VS\VC\BIN\1049\CLUI.DLL
C:\WINDOWS\SYSTEM32\RSAENH.DLL
C:\WINDOWS\SYSTEM32\TZRES.DLL
C:\USERS\саша\DESKTOP\четвертый мг х_х\RAYTRACER\SRC\COMMONMATH\AXISALIGNEDBOX.H
C:\USERS\саша\DESKTOP\четвертый мг х_х\RAYTRACER\SRC\COMMONMATH\VECTOR3.H
C:\USERS\саша\DESKTOP\четвертый мг х_х\RAYTRACER\SRC\COMMONMATH\QUATERNION.H
C:\USERS\саша\DESKTOP\четвертый мг х_х\RAYTRACER\SRC\COMMONMATH\MATRIX4.H
C:\USERS\саша\DESKTOP\четвертый мг х_х\RAYTRACER\SRC\COMMONMATH\MATRIX3.H
C:\USERS\саша\DESKTOP\четвертый мг х_х\RAYTRACER\SRC\COMMONMATH\VECTOR4.H
C:\USERS\саша\DESKTOP\четвертый мг х_х\RAYTRACER\SRC\COMMONMATH\PLANE.H
D:\VS\VC\BIN\MSPDBSRV.EXE
C:\USERS\саша\DESKTOP\четвертый мг х_х\RAYTRACER\SRC\GLM\GTC\TYPE_PTR.HPP
C:\USERS\саша\DESKTOP\четвертый мг х_х\RAYTRACER\SRC\GLM\GTC\HALF_FLOAT.HPP
C:\USERS\саша\DESKTOP\четвертый мг х_х\RAYTRACER\SRC\GLM\GTC\HALF_FLOAT.INL
C:\USERS\саша\DESKTOP\четвертый мг х_х\RAYTRACER\SRC\GLM\GTC\QUATERNION.HPP
C:\USERS\саша\DESKTOP\четвертый мг х_х\RAYTRACER\SRC\GLM\GTC\CONSTANTS.HPP
C:\USERS\саша\DESKTOP\четвертый мг х_х\RAYTRACER\SRC\GLM\GTC\CONSTANTS.INL
C:\USERS\саша\DESKTOP\четвертый мг х_х\RAYTRACER\SRC\GLM\GTC\QUATERNION.INL
C:\USERS\саша\DESKTOP\четвертый мг х_х\RAYTRACER\SRC\GLM\GTC\TYPE_PTR.INL
C:\USERS\саша\DESKTOP\четвертый мг х_х\RAYTRACER\SRC\GLM\GTC\MATRIX_TRANSFORM.HPP
C:\USERS\саша\DESKTOP\четвертый мг х_х\RAYTRACER\SRC\GLM\GTC\MATRIX_TRANSFORM.INL
C:\USERS\саша\DESKTOP\четвертый мг х_х\RAYTRACER\SRC\GLM\GTC\MATRIX_INVERSE.HPP
C:\USERS\саша\DESKTOP\четвертый мг х_х\RAYTRACER\SRC\GLM\GTC\MATRIX_INVERSE.INL
^C:\USERS\Саша\DESKTOP\ЧЕТВЕРТЫЙ МГ Х_Х\RAYTRACER\SRC\MAIN.CPP
C:\USERS\саша\DESKTOP\четвертый мг х_х\RAYTRACER\SRC\TRACER.H
C:\USERS\саша\DESKTOP\четвертый мг х_х\RAYTRACER\SRC\GLM\GLM.HPP
C:\USERS\саша\DESKTOP\четвертый мг х_х\RAYTRACER\SRC\GLM\CORE\_FIXES.HPP
D:\VS\VC\INCLUDE\CMATH
D:\VS\VC\INCLUDE\YVALS.H
D:\VS\VC\INCLUDE\XKEYCHECK.H
D:\VS\VC\INCLUDE\CRTDEFS.H
D:\VS\VC\INCLUDE\SAL.H
D:\VS\VC\INCLUDE\CONCURRENCYSAL.H
D:\VS\VC\INCLUDE\VADEFS.H
D:\VS\VC\INCLUDE\USE_ANSI.H
D:\VS\VC\INCLUDE\MATH.H
D:\VS\VC\INCLUDE\XTGMATH.H
D:\VS\VC\INCLUDE\XTR1COMMON
D:\VS\VC\INCLUDE\CLIMITS
D:\VS\VC\INCLUDE\LIMITS.H
D:\VS\VC\INCLUDE\CFLOAT
D:\VS\VC\INCLUDE\FLOAT.H
D:\VS\VC\INCLUDE\CRTWRN.H
D:\VS\VC\INCLUDE\LIMITS
D:\VS\VC\INCLUDE\YMATH.H
D:\VS\VC\INCLUDE\CWCHAR
D:\VS\VC\INCLUDE\WCHAR.H
D:\VS\VC\INCLUDE\SWPRINTF.INL
D:\VS\VC\INCLUDE\WTIME.INL
D:\VS\VC\INCLUDE\XSTDDEF
D:\VS\VC\INCLUDE\STDLIB.H
D:\VS\VC\INCLUDE\CSTDDEF
D:\VS\VC\INCLUDE\STDDEF.H
D:\VS\VC\INCLUDE\INITIALIZER_LIST
D:\VS\VC\INCLUDE\CSTDIO
D:\VS\VC\INCLUDE\STDIO.H
C:\USERS\саша\DESKTOP\четвертый мг х_х\RAYTRACER\SRC\GLM\CORE\SETUP.HPP
D:\VS\VC\INCLUDE\IMMINTRIN.H
D:\VS\VC\INCLUDE\WMMINTRIN.H
D:\VS\VC\INCLUDE\NMMINTRIN.H
D:\VS\VC\INCLUDE\SMMINTRIN.H
D:\VS\VC\INCLUDE\TMMINTRIN.H
D:\VS\VC\INCLUDE\PMMINTRIN.H
D:\VS\VC\INCLUDE\EMMINTRIN.H
D:\VS\VC\INCLUDE\XMMINTRIN.H
D:\VS\VC\INCLUDE\MMINTRIN.H
D:\VS\VC\INCLUDE\MALLOC.H
C:\USERS\саша\DESKTOP\четвертый мг х_х\RAYTRACER\SRC\GLM\CORE\_DETAIL.HPP
D:\VS\VC\INCLUDE\CASSERT
D:\VS\VC\INCLUDE\ASSERT.H
C:\USERS\саша\DESKTOP\четвертый мг х_х\RAYTRACER\SRC\GLM\CORE\_VECTORIZE.HPP
C:\USERS\саша\DESKTOP\четвертый мг х_х\RAYTRACER\SRC\GLM\CORE\TYPE.HPP
C:\USERS\саша\DESKTOP\четвертый мг х_х\RAYTRACER\SRC\GLM\CORE\TYPE_HALF.HPP
D:\VS\VC\INCLUDE\CSTDLIB
C:\USERS\саша\DESKTOP\четвертый мг х_х\RAYTRACER\SRC\GLM\CORE\TYPE_HALF.INL
C:\USERS\саша\DESKTOP\четвертый мг х_х\RAYTRACER\SRC\GLM\CORE\TYPE_FLOAT.HPP
C:\USERS\саша\DESKTOP\четвертый мг х_х\RAYTRACER\SRC\GLM\CORE\TYPE_INT.HPP
C:\USERS\саша\DESKTOP\четвертый мг х_х\RAYTRACER\SRC\GLM\CORE\TYPE_GENTYPE.HPP
C:\USERS\саша\DESKTOP\четвертый мг х_х\RAYTRACER\SRC\GLM\CORE\TYPE_SIZE.HPP
C:\USERS\саша\DESKTOP\четвертый мг х_х\RAYTRACER\SRC\GLM\CORE\TYPE_VEC1.HPP
C:\USERS\саша\DESKTOP\четвертый мг х_х\RAYTRACER\SRC\GLM\CORE\TYPE_VEC.HPP
C:\USERS\саша\DESKTOP\четвертый мг х_х\RAYTRACER\SRC\GLM\CORE\_SWIZZLE.HPP
C:\USERS\саша\DESKTOP\четвертый мг х_х\RAYTRACER\SRC\GLM\CORE\_SWIZZLE_FUNC.HPP
C:\USERS\саша\DESKTOP\четвертый мг х_х\RAYTRACER\SRC\GLM\CORE\TYPE_VEC1.INL
C:\USERS\саша\DESKTOP\четвертый мг х_х\RAYTRACER\SRC\GLM\CORE\TYPE_VEC2.HPP
C:\USERS\саша\DESKTOP\четвертый мг х_х\RAYTRACER\SRC\GLM\CORE\TYPE_VEC2.INL
C:\USERS\саша\DESKTOP\четвертый мг х_х\RAYTRACER\SRC\GLM\CORE\TYPE_VEC3.HPP
C:\USERS\саша\DESKTOP\четвертый мг х_х\RAYTRACER\SRC\GLM\CORE\TYPE_VEC3.INL
C:\USERS\саша\DESKTOP\четвертый мг х_х\RAYTRACER\SRC\GLM\CORE\TYPE_VEC4.HPP
C:\USERS\саша\DESKTOP\четвертый мг х_х\RAYTRACER\SRC\GLM\CORE\TYPE_VEC4.INL
C:\USERS\саша\DESKTOP\четвертый мг х_х\RAYTRACER\SRC\GLM\CORE\TYPE_MAT2X2.HPP
C:\USERS\саша\DESKTOP\четвертый мг х_х\RAYTRACER\SRC\GLM\CORE\TYPE_MAT.HPP
C:\USERS\саша\DESKTOP\четвертый мг х_х\RAYTRACER\SRC\GLM\CORE\TYPE_MAT2X2.INL
C:\USERS\саша\DESKTOP\четвертый мг х_х\RAYTRACER\SRC\GLM\CORE\TYPE_MAT2X3.HPP
C:\USERS\саша\DESKTOP\четвертый мг х_х\RAYTRACER\SRC\GLM\CORE\TYPE_MAT2X3.INL
C:\USERS\саша\DESKTOP\четвертый мг х_х\RAYTRACER\SRC\GLM\CORE\TYPE_MAT2X4.HPP
C:\USERS\саша\DESKTOP\четвертый мг х_х\RAYTRACER\SRC\GLM\CORE\TYPE_MAT2X4.INL
C:\USERS\саша\DESKTOP\четвертый мг х_х\RAYTRACER\SRC\GLM\CORE\TYPE_MAT3X2.HPP
C:\USERS\саша\DESKTOP\четвертый мг х_х\RAYTRACER\SRC\GLM\CORE\TYPE_MAT3X2.INL
C:\USERS\саша\DESKTOP\четвертый мг х_х\RAYTRACER\SRC\GLM\CORE\TYPE_MAT3X3.HPP
C:\USERS\саша\DESKTOP\четвертый мг х_х\RAYTRACER\SRC\GLM\CORE\TYPE_MAT3X3.INL
C:\USERS\саша\DESKTOP\четвертый мг х_х\RAYTRACER\SRC\GLM\CORE\TYPE_MAT3X4.HPP
C:\USERS\саша\DESKTOP\четвертый мг х_х\RAYTRACER\SRC\GLM\CORE\TYPE_MAT3X4.INL
C:\USERS\саша\DESKTOP\четвертый мг х_х\RAYTRACER\SRC\GLM\CORE\TYPE_MAT4X2.HPP
C:\USERS\саша\DESKTOP\четвертый мг х_х\RAYTRACER\SRC\GLM\CORE\TYPE_MAT4X2.INL
C:\USERS\саша\DESKTOP\четвертый мг х_х\RAYTRACER\SRC\GLM\CORE\TYPE_MAT4X3.HPP
C:\USERS\саша\DESKTOP\четвертый мг х_х\RAYTRACER\SRC\GLM\CORE\TYPE_MAT4X3.INL
C:\USERS\саша\DESKTOP\четвертый мг х_х\RAYTRACER\SRC\GLM\CORE\TYPE_MAT4X4.HPP
C:\USERS\саша\DESKTOP\четвертый мг х_х\RAYTRACER\SRC\GLM\CORE\TYPE_MAT4X4.INL
C:\USERS\саша\DESKTOP\четвертый мг х_х\RAYTRACER\SRC\GLM\CORE\FUNC_TRIGONOMETRIC.HPP
C:\USERS\саша\DESKTOP\четвертый мг х_х\RAYTRACER\SRC\GLM\CORE\FUNC_TRIGONOMETRIC.INL
C:\USERS\саша\DESKTOP\четвертый мг х_х\RAYTRACER\SRC\GLM\CORE\FUNC_EXPONENTIAL.HPP
C:\USERS\саша\DESKTOP\четвертый мг х_х\RAYTRACER\SRC\GLM\CORE\FUNC_EXPONENTIAL.INL
C:\USERS\саша\DESKTOP\четвертый мг х_х\RAYTRACER\SRC\GLM\CORE\FUNC_COMMON.HPP
C:\USERS\саша\DESKTOP\четвертый мг х_х\RAYTRACER\SRC\GLM\CORE\FUNC_COMMON.INL
C:\USERS\саша\DESKTOP\четвертый мг х_х\RAYTRACER\SRC\GLM\CORE\FUNC_PACKING.HPP
C:\USERS\саша\DESKTOP\четвертый мг х_х\RAYTRACER\SRC\GLM\CORE\FUNC_PACKING.INL
C:\USERS\саша\DESKTOP\четвертый мг х_х\RAYTRACER\SRC\GLM\CORE\FUNC_GEOMETRIC.HPP
C:\USERS\саша\DESKTOP\четвертый мг х_х\RAYTRACER\SRC\GLM\CORE\FUNC_GEOMETRIC.INL
C:\USERS\саша\DESKTOP\четвертый мг х_х\RAYTRACER\SRC\GLM\CORE\FUNC_MATRIX.HPP
C:\USERS\саша\DESKTOP\четвертый мг х_х\RAYTRACER\SRC\GLM\CORE\FUNC_MATRIX.INL
C:\USERS\саша\DESKTOP\четвертый мг х_х\RAYTRACER\SRC\GLM\CORE\FUNC_VECTOR_RELATIONAL.HPP
C:\USERS\саша\DESKTOP\четвертый мг х_х\RAYTRACER\SRC\GLM\CORE\FUNC_VECTOR_RELATIONAL.INL
C:\USERS\саша\DESKTOP\четвертый мг х_х\RAYTRACER\SRC\GLM\CORE\FUNC_INTEGER.HPP
C:\USERS\саша\DESKTOP\четвертый мг х_х\RAYTRACER\SRC\GLM\CORE\FUNC_INTEGER.INL
D:\VS\VC\INCLUDE\INTRIN.H
D:\VS\VC\INCLUDE\SETJMP.H
D:\VS\VC\INCLUDE\AMMINTRIN.H
D:\VS\VC\INCLUDE\MM3DNOW.H
C:\USERS\саша\DESKTOP\четвертый мг х_х\RAYTRACER\SRC\GLM\CORE\FUNC_NOISE.HPP
C:\USERS\саша\DESKTOP\четвертый мг х_х\RAYTRACER\SRC\GLM\CORE\FUNC_NOISE.INL
C:\USERS\саша\DESKTOP\четвертый мг х_х\RAYTRACER\SRC\TYPES.H
D:\VS\VC\INCLUDE\VECTOR
D:\VS\VC\INCLUDE\XMEMORY
D:\VS\VC\INCLUDE\XMEMORY0
D:\VS\VC\INCLUDE\NEW
D:\VS\VC\INCLUDE\EXCEPTION
D:\VS\VC\INCLUDE\EH.H
D:\VS\VC\INCLUDE\STRING.H
D:\VS\VC\INCLUDE\XUTILITY
D:\VS\VC\INCLUDE\UTILITY
D:\VS\VC\INCLUDE\IOSFWD
D:\VS\VC\INCLUDE\CSTRING
D:\VS\VC\INCLUDE\CRTDBG.H
D:\VS\VC\INCLUDE\TYPE_TRAITS
D:\VS\VC\INCLUDE\XREFWRAP
D:\VS\VC\INCLUDE\XATOMIC0.H
D:\VS\VC\INCLUDE\STDEXCEPT
D:\VS\VC\INCLUDE\XSTRING
C:\USERS\саша\DESKTOP\четвертый мг х_х\RAYTRACER\SRC\SCENE.H
D:\VS\VC\INCLUDE\STRING
D:\VS\VC\INCLUDE\ITERATOR
D:\VS\VC\INCLUDE\ISTREAM
D:\VS\VC\INCLUDE\OSTREAM
D:\VS\VC\INCLUDE\IOS
D:\VS\VC\INCLUDE\XLOCNUM
D:\VS\VC\INCLUDE\STREAMBUF
D:\VS\VC\INCLUDE\XIOSBASE
D:\VS\VC\INCLUDE\XLOCALE
D:\VS\VC\INCLUDE\TYPEINFO
D:\VS\VC\INCLUDE\XLOCINFO
D:\VS\VC\INCLUDE\XLOCINFO.H
D:\VS\VC\INCLUDE\CTYPE.H
D:\VS\VC\INCLUDE\LOCALE.H
D:\VS\VC\INCLUDE\XDEBUG
D:\VS\VC\INCLUDE\XFACET
D:\VS\VC\INCLUDE\SYSTEM_ERROR
D:\VS\VC\INCLUDE\CERRNO
D:\VS\VC\INCLUDE\ERRNO.H
D:\VS\VC\INCLUDE\SHARE.H
C:\USERS\саша\DESKTOP\четвертый мг х_х\RAYTRACER\SRC\L3DS\L3DS.H
C:\WINDOWS\GLOBALIZATION\SORTING\SORTDEFAULT.NLS
D:\VS\VC\BIN\1049\CLUI.DLL
C:\WINDOWS\SYSTEM32\RSAENH.DLL
C:\WINDOWS\SYSTEM32\TZRES.DLL
C:\USERS\саша\DESKTOP\четвертый мг х_х\RAYTRACER\SRC\COMMONMATH\MATH.H
D:\VS\VC\INCLUDE\ALGORITHM
D:\VS\VC\INCLUDE\LIST
C:\USERS\саша\DESKTOP\четвертый мг х_х\RAYTRACER\SRC\COMMONMATH\AXISALIGNEDBOX.H
C:\USERS\саша\DESKTOP\четвертый мг х_х\RAYTRACER\SRC\COMMONMATH\VECTOR3.H
D:\VS\VC\INCLUDE\IOSTREAM
C:\USERS\саша\DESKTOP\четвертый мг х_х\RAYTRACER\SRC\COMMONMATH\QUATERNION.H
C:\USERS\саша\DESKTOP\четвертый мг х_х\RAYTRACER\SRC\COMMONMATH\MATRIX4.H
C:\USERS\саша\DESKTOP\четвертый мг х_х\RAYTRACER\SRC\COMMONMATH\MATRIX3.H
C:\USERS\саша\DESKTOP\четвертый мг х_х\RAYTRACER\SRC\COMMONMATH\VECTOR4.H
C:\USERS\саша\DESKTOP\четвертый мг х_х\RAYTRACER\SRC\COMMONMATH\PLANE.H
D:\VS\VC\INCLUDE\OMP.H
C:\USERS\саша\DESKTOP\четвертый мг х_х\RAYTRACER\SRC\TIMER.H
D:\VS\VC\INCLUDE\CTIME
D:\VS\VC\INCLUDE\TIME.H
D:\VS\VC\INCLUDE\TIME.INL
D:\VS\VC\INCLUDE\IOMANIP
D:\VS\VC\INCLUDE\XLOCMON
D:\VS\VC\INCLUDE\XLOCTIME
^C:\USERS\Саша\DESKTOP\ЧЕТВЕРТЫЙ МГ Х_Х\RAYTRACER\SRC\L3DS\L3DS.CPP
C:\USERS\саша\DESKTOP\четвертый мг х_х\RAYTRACER\SRC\L3DS\L3DS.H
D:\VS\VC\INCLUDE\VECTOR
D:\VS\VC\INCLUDE\XMEMORY
D:\VS\VC\INCLUDE\XMEMORY0
D:\VS\VC\INCLUDE\CSTDLIB
D:\VS\VC\INCLUDE\YVALS.H
D:\VS\VC\INCLUDE\XKEYCHECK.H
D:\VS\VC\INCLUDE\CRTDEFS.H
D:\VS\VC\INCLUDE\SAL.H
D:\VS\VC\INCLUDE\CONCURRENCYSAL.H
D:\VS\VC\INCLUDE\VADEFS.H
D:\VS\VC\INCLUDE\USE_ANSI.H
D:\VS\VC\INCLUDE\STDLIB.H
D:\VS\VC\INCLUDE\LIMITS.H
D:\VS\VC\INCLUDE\LIMITS
D:\VS\VC\INCLUDE\YMATH.H
D:\VS\VC\INCLUDE\CFLOAT
D:\VS\VC\INCLUDE\FLOAT.H
D:\VS\VC\INCLUDE\CRTWRN.H
D:\VS\VC\INCLUDE\CLIMITS
D:\VS\VC\INCLUDE\CMATH
D:\VS\VC\INCLUDE\MATH.H
D:\VS\VC\INCLUDE\XTGMATH.H
D:\VS\VC\INCLUDE\XTR1COMMON
D:\VS\VC\INCLUDE\CWCHAR
D:\VS\VC\INCLUDE\WCHAR.H
D:\VS\VC\INCLUDE\SWPRINTF.INL
D:\VS\VC\INCLUDE\WTIME.INL
D:\VS\VC\INCLUDE\XSTDDEF
D:\VS\VC\INCLUDE\CSTDDEF
D:\VS\VC\INCLUDE\STDDEF.H
D:\VS\VC\INCLUDE\INITIALIZER_LIST
D:\VS\VC\INCLUDE\NEW
D:\VS\VC\INCLUDE\EXCEPTION
D:\VS\VC\INCLUDE\EH.H
D:\VS\VC\INCLUDE\MALLOC.H
D:\VS\VC\INCLUDE\STRING.H
D:\VS\VC\INCLUDE\XUTILITY
D:\VS\VC\INCLUDE\UTILITY
D:\VS\VC\INCLUDE\IOSFWD
D:\VS\VC\INCLUDE\CSTDIO
D:\VS\VC\INCLUDE\STDIO.H
D:\VS\VC\INCLUDE\CSTRING
D:\VS\VC\INCLUDE\CRTDBG.H
D:\VS\VC\INCLUDE\TYPE_TRAITS
D:\VS\VC\INCLUDE\XREFWRAP
D:\VS\VC\INCLUDE\XATOMIC0.H
D:\VS\VC\INCLUDE\INTRIN.H
D:\VS\VC\INCLUDE\SETJMP.H
D:\VS\VC\INCLUDE\IMMINTRIN.H
D:\VS\VC\INCLUDE\WMMINTRIN.H
D:\VS\VC\INCLUDE\NMMINTRIN.H
D:\VS\VC\INCLUDE\SMMINTRIN.H
D:\VS\VC\INCLUDE\TMMINTRIN.H
D:\VS\VC\INCLUDE\PMMINTRIN.H
D:\VS\VC\INCLUDE\EMMINTRIN.H
D:\VS\VC\INCLUDE\XMMINTRIN.H
D:\VS\VC\INCLUDE\MMINTRIN.H
D:\VS\VC\INCLUDE\AMMINTRIN.H
D:\VS\VC\INCLUDE\MM3DNOW.H
D:\VS\VC\INCLUDE\STDEXCEPT
D:\VS\VC\INCLUDE\XSTRING
D:\VS\VC\INCLUDE\STRING
D:\VS\VC\INCLUDE\ITERATOR
D:\VS\VC\INCLUDE\ISTREAM
D:\VS\VC\INCLUDE\OSTREAM
D:\VS\VC\INCLUDE\IOS
D:\VS\VC\INCLUDE\XLOCNUM
D:\VS\VC\INCLUDE\STREAMBUF
D:\VS\VC\INCLUDE\XIOSBASE
D:\VS\VC\INCLUDE\XLOCALE
D:\VS\VC\INCLUDE\TYPEINFO
D:\VS\VC\INCLUDE\XLOCINFO
D:\VS\VC\INCLUDE\XLOCINFO.H
D:\VS\VC\INCLUDE\CTYPE.H
D:\VS\VC\INCLUDE\LOCALE.H
D:\VS\VC\INCLUDE\XDEBUG
D:\VS\VC\INCLUDE\XFACET
D:\VS\VC\INCLUDE\SYSTEM_ERROR
D:\VS\VC\INCLUDE\CERRNO
D:\VS\VC\INCLUDE\ERRNO.H
D:\VS\VC\INCLUDE\SHARE.H
C:\WINDOWS\GLOBALIZATION\SORTING\SORTDEFAULT.NLS
D:\VS\VC\BIN\1049\CLUI.DLL
C:\WINDOWS\SYSTEM32\RSAENH.DLL
C:\WINDOWS\SYSTEM32\TZRES.DLL
^C:\USERS\Саша\DESKTOP\ЧЕТВЕРТЫЙ МГ Х_Х\RAYTRACER\SRC\COMMONMATH\MATH.CPP
C:\USERS\саша\DESKTOP\четвертый мг х_х\RAYTRACER\SRC\COMMONMATH\MATH.H
D:\VS\VC\INCLUDE\ASSERT.H
D:\VS\VC\INCLUDE\CRTDEFS.H
D:\VS\VC\INCLUDE\SAL.H
D:\VS\VC\INCLUDE\CONCURRENCYSAL.H
D:\VS\VC\INCLUDE\VADEFS.H
D:\VS\VC\INCLUDE\CMATH
D:\VS\VC\INCLUDE\YVALS.H
D:\VS\VC\INCLUDE\XKEYCHECK.H
D:\VS\VC\INCLUDE\USE_ANSI.H
D:\VS\VC\INCLUDE\MATH.H
D:\VS\VC\INCLUDE\XTGMATH.H
D:\VS\VC\INCLUDE\XTR1COMMON
D:\VS\VC\INCLUDE\ALGORITHM
D:\VS\VC\INCLUDE\XMEMORY
D:\VS\VC\INCLUDE\XMEMORY0
D:\VS\VC\INCLUDE\CSTDLIB
D:\VS\VC\INCLUDE\STDLIB.H
D:\VS\VC\INCLUDE\LIMITS.H
D:\VS\VC\INCLUDE\LIMITS
D:\VS\VC\INCLUDE\YMATH.H
D:\VS\VC\INCLUDE\CFLOAT
D:\VS\VC\INCLUDE\FLOAT.H
D:\VS\VC\INCLUDE\CRTWRN.H
D:\VS\VC\INCLUDE\CLIMITS
D:\VS\VC\INCLUDE\CWCHAR
D:\VS\VC\INCLUDE\WCHAR.H
D:\VS\VC\INCLUDE\SWPRINTF.INL
D:\VS\VC\INCLUDE\WTIME.INL
D:\VS\VC\INCLUDE\XSTDDEF
D:\VS\VC\INCLUDE\CSTDDEF
D:\VS\VC\INCLUDE\STDDEF.H
D:\VS\VC\INCLUDE\INITIALIZER_LIST
D:\VS\VC\INCLUDE\NEW
D:\VS\VC\INCLUDE\EXCEPTION
D:\VS\VC\INCLUDE\EH.H
D:\VS\VC\INCLUDE\MALLOC.H
D:\VS\VC\INCLUDE\STRING.H
D:\VS\VC\INCLUDE\XUTILITY
D:\VS\VC\INCLUDE\UTILITY
D:\VS\VC\INCLUDE\IOSFWD
D:\VS\VC\INCLUDE\CSTDIO
D:\VS\VC\INCLUDE\STDIO.H
D:\VS\VC\INCLUDE\CSTRING
D:\VS\VC\INCLUDE\CRTDBG.H
D:\VS\VC\INCLUDE\TYPE_TRAITS
D:\VS\VC\INCLUDE\XREFWRAP
D:\VS\VC\INCLUDE\XATOMIC0.H
D:\VS\VC\INCLUDE\INTRIN.H
D:\VS\VC\INCLUDE\SETJMP.H
D:\VS\VC\INCLUDE\IMMINTRIN.H
D:\VS\VC\INCLUDE\WMMINTRIN.H
D:\VS\VC\INCLUDE\NMMINTRIN.H
D:\VS\VC\INCLUDE\SMMINTRIN.H
D:\VS\VC\INCLUDE\TMMINTRIN.H
D:\VS\VC\INCLUDE\PMMINTRIN.H
D:\VS\VC\INCLUDE\EMMINTRIN.H
D:\VS\VC\INCLUDE\XMMINTRIN.H
D:\VS\VC\INCLUDE\MMINTRIN.H
D:\VS\VC\INCLUDE\AMMINTRIN.H
D:\VS\VC\INCLUDE\MM3DNOW.H
D:\VS\VC\INCLUDE\VECTOR
D:\VS\VC\INCLUDE\STDEXCEPT
D:\VS\VC\INCLUDE\XSTRING
D:\VS\VC\INCLUDE\LIST
C:\USERS\саша\DESKTOP\четвертый мг х_х\RAYTRACER\SRC\COMMONMATH\VECTOR2.H
C:\USERS\саша\DESKTOP\четвертый мг х_х\RAYTRACER\SRC\COMMONMATH\VECTOR3.H
D:\VS\VC\INCLUDE\IOSTREAM
D:\VS\VC\INCLUDE\ISTREAM
D:\VS\VC\INCLUDE\OSTREAM
D:\VS\VC\INCLUDE\IOS
D:\VS\VC\INCLUDE\XLOCNUM
D:\VS\VC\INCLUDE\STREAMBUF
D:\VS\VC\INCLUDE\XIOSBASE
D:\VS\VC\INCLUDE\XLOCALE
D:\VS\VC\INCLUDE\TYPEINFO
D:\VS\VC\INCLUDE\XLOCINFO
D:\VS\VC\INCLUDE\XLOCINFO.H
D:\VS\VC\INCLUDE\CTYPE.H
D:\VS\VC\INCLUDE\LOCALE.H
D:\VS\VC\INCLUDE\XDEBUG
D:\VS\VC\INCLUDE\XFACET
D:\VS\VC\INCLUDE\SYSTEM_ERROR
D:\VS\VC\INCLUDE\CERRNO
D:\VS\VC\INCLUDE\ERRNO.H
D:\VS\VC\INCLUDE\SHARE.H
C:\USERS\саша\DESKTOP\четвертый мг х_х\RAYTRACER\SRC\COMMONMATH\QUATERNION.H
C:\USERS\саша\DESKTOP\четвертый мг х_х\RAYTRACER\SRC\COMMONMATH\VECTOR4.H
C:\USERS\саша\DESKTOP\четвертый мг х_х\RAYTRACER\SRC\COMMONMATH\RAY.H
C:\USERS\саша\DESKTOP\четвертый мг х_х\RAYTRACER\SRC\COMMONMATH\SPHERE.H
C:\USERS\саша\DESKTOP\четвертый мг х_х\RAYTRACER\SRC\COMMONMATH\AXISALIGNEDBOX.H
C:\USERS\саша\DESKTOP\четвертый мг х_х\RAYTRACER\SRC\COMMONMATH\MATRIX4.H
C:\USERS\саша\DESKTOP\четвертый мг х_х\RAYTRACER\SRC\COMMONMATH\MATRIX3.H
C:\USERS\саша\DESKTOP\четвертый мг х_х\RAYTRACER\SRC\COMMONMATH\PLANE.H
^C:\USERS\Саша\DESKTOP\ЧЕТВЕРТЫЙ МГ Х_Х\RAYTRACER\SRC\COMMONMATH\AXISALIGNEDBOX.CPP
C:\USERS\саша\DESKTOP\четвертый мг х_х\RAYTRACER\SRC\COMMONMATH\AXISALIGNEDBOX.H
C:\USERS\саша\DESKTOP\четвертый мг х_х\RAYTRACER\SRC\COMMONMATH\VECTOR3.H
D:\VS\VC\INCLUDE\ASSERT.H
D:\VS\VC\INCLUDE\CRTDEFS.H
D:\VS\VC\INCLUDE\SAL.H
D:\VS\VC\INCLUDE\CONCURRENCYSAL.H
D:\VS\VC\INCLUDE\VADEFS.H
D:\VS\VC\INCLUDE\IOSTREAM
D:\VS\VC\INCLUDE\ISTREAM
D:\VS\VC\INCLUDE\OSTREAM
D:\VS\VC\INCLUDE\IOS
D:\VS\VC\INCLUDE\XLOCNUM
D:\VS\VC\INCLUDE\CLIMITS
D:\VS\VC\INCLUDE\YVALS.H
D:\VS\VC\INCLUDE\XKEYCHECK.H
D:\VS\VC\INCLUDE\USE_ANSI.H
D:\VS\VC\INCLUDE\LIMITS.H
D:\VS\VC\INCLUDE\CMATH
D:\VS\VC\INCLUDE\MATH.H
D:\VS\VC\INCLUDE\XTGMATH.H
D:\VS\VC\INCLUDE\XTR1COMMON
D:\VS\VC\INCLUDE\CSTDIO
D:\VS\VC\INCLUDE\STDIO.H
D:\VS\VC\INCLUDE\SWPRINTF.INL
D:\VS\VC\INCLUDE\CSTDLIB
D:\VS\VC\INCLUDE\STDLIB.H
D:\VS\VC\INCLUDE\STREAMBUF
D:\VS\VC\INCLUDE\XIOSBASE
D:\VS\VC\INCLUDE\XLOCALE
D:\VS\VC\INCLUDE\CSTRING
D:\VS\VC\INCLUDE\STRING.H
D:\VS\VC\INCLUDE\STDEXCEPT
D:\VS\VC\INCLUDE\EXCEPTION
D:\VS\VC\INCLUDE\XSTDDEF
D:\VS\VC\INCLUDE\CSTDDEF
D:\VS\VC\INCLUDE\STDDEF.H
D:\VS\VC\INCLUDE\INITIALIZER_LIST
D:\VS\VC\INCLUDE\EH.H
D:\VS\VC\INCLUDE\MALLOC.H
D:\VS\VC\INCLUDE\XSTRING
D:\VS\VC\INCLUDE\XMEMORY0
D:\VS\VC\INCLUDE\LIMITS
D:\VS\VC\INCLUDE\YMATH.H
D:\VS\VC\INCLUDE\CFLOAT
D:\VS\VC\INCLUDE\FLOAT.H
D:\VS\VC\INCLUDE\CRTWRN.H
D:\VS\VC\INCLUDE\CWCHAR
D:\VS\VC\INCLUDE\WCHAR.H
D:\VS\VC\INCLUDE\WTIME.INL
D:\VS\VC\INCLUDE\NEW
D:\VS\VC\INCLUDE\XUTILITY
D:\VS\VC\INCLUDE\UTILITY
D:\VS\VC\INCLUDE\IOSFWD
D:\VS\VC\INCLUDE\CRTDBG.H
D:\VS\VC\INCLUDE\TYPE_TRAITS
D:\VS\VC\INCLUDE\XREFWRAP
D:\VS\VC\INCLUDE\XATOMIC0.H
D:\VS\VC\INCLUDE\INTRIN.H
D:\VS\VC\INCLUDE\SETJMP.H
D:\VS\VC\INCLUDE\IMMINTRIN.H
D:\VS\VC\INCLUDE\WMMINTRIN.H
D:\VS\VC\INCLUDE\NMMINTRIN.H
D:\VS\VC\INCLUDE\SMMINTRIN.H
D:\VS\VC\INCLUDE\TMMINTRIN.H
D:\VS\VC\INCLUDE\PMMINTRIN.H
D:\VS\VC\INCLUDE\EMMINTRIN.H
D:\VS\VC\INCLUDE\XMMINTRIN.H
D:\VS\VC\INCLUDE\MMINTRIN.H
D:\VS\VC\INCLUDE\AMMINTRIN.H
D:\VS\VC\INCLUDE\MM3DNOW.H
D:\VS\VC\INCLUDE\TYPEINFO
D:\VS\VC\INCLUDE\XLOCINFO
D:\VS\VC\INCLUDE\XLOCINFO.H
D:\VS\VC\INCLUDE\CTYPE.H
D:\VS\VC\INCLUDE\LOCALE.H
D:\VS\VC\INCLUDE\XDEBUG
D:\VS\VC\INCLUDE\XMEMORY
D:\VS\VC\INCLUDE\XFACET
D:\VS\VC\INCLUDE\SYSTEM_ERROR
D:\VS\VC\INCLUDE\CERRNO
D:\VS\VC\INCLUDE\ERRNO.H
D:\VS\VC\INCLUDE\SHARE.H
C:\USERS\саша\DESKTOP\четвертый мг х_х\RAYTRACER\SRC\COMMONMATH\MATH.H
D:\VS\VC\INCLUDE\ALGORITHM
D:\VS\VC\INCLUDE\VECTOR
D:\VS\VC\INCLUDE\LIST
C:\USERS\саша\DESKTOP\четвертый мг х_х\RAYTRACER\SRC\COMMONMATH\QUATERNION.H
C:\USERS\саша\DESKTOP\четвертый мг х_х\RAYTRACER\SRC\COMMONMATH\MATRIX4.H
C:\USERS\саша\DESKTOP\четвертый мг х_х\RAYTRACER\SRC\COMMONMATH\MATRIX3.H
C:\USERS\саша\DESKTOP\четвертый мг х_х\RAYTRACER\SRC\COMMONMATH\VECTOR4.H
C:\USERS\саша\DESKTOP\четвертый мг х_х\RAYTRACER\SRC\COMMONMATH\PLANE.H
^C:\USERS\САША\DESKTOP\ЧЕТВЕРТЫЙ МГ Х_Х\RAYTRACER\SRC\COMMONMATH\VECTOR3.CPP
C:\WINDOWS\GLOBALIZATION\SORTING\SORTDEFAULT.NLS
D:\VS\VC\BIN\1049\CLUI.DLL
C:\WINDOWS\SYSTEM32\RSAENH.DLL
C:\WINDOWS\SYSTEM32\TZRES.DLL
C:\USERS\саша\DESKTOP\четвертый мг х_х\RAYTRACER\SRC\COMMONMATH\VECTOR3.H
D:\VS\VC\INCLUDE\ASSERT.H
D:\VS\VC\INCLUDE\CRTDEFS.H
D:\VS\VC\INCLUDE\SAL.H
D:\VS\VC\INCLUDE\CONCURRENCYSAL.H
D:\VS\VC\INCLUDE\VADEFS.H
D:\VS\VC\INCLUDE\IOSTREAM
D:\VS\VC\INCLUDE\ISTREAM
D:\VS\VC\INCLUDE\OSTREAM
D:\VS\VC\INCLUDE\IOS
D:\VS\VC\INCLUDE\XLOCNUM
D:\VS\VC\INCLUDE\CLIMITS
D:\VS\VC\INCLUDE\YVALS.H
D:\VS\VC\INCLUDE\XKEYCHECK.H
D:\VS\VC\INCLUDE\USE_ANSI.H
D:\VS\VC\INCLUDE\LIMITS.H
D:\VS\VC\INCLUDE\CMATH
D:\VS\VC\INCLUDE\MATH.H
D:\VS\VC\INCLUDE\XTGMATH.H
D:\VS\VC\INCLUDE\XTR1COMMON
D:\VS\VC\INCLUDE\CSTDIO
D:\VS\VC\INCLUDE\STDIO.H
D:\VS\VC\INCLUDE\SWPRINTF.INL
D:\VS\VC\INCLUDE\CSTDLIB
D:\VS\VC\INCLUDE\STDLIB.H
D:\VS\VC\INCLUDE\STREAMBUF
D:\VS\VC\INCLUDE\XIOSBASE
D:\VS\VC\INCLUDE\XLOCALE
D:\VS\VC\INCLUDE\CSTRING
D:\VS\VC\INCLUDE\STRING.H
D:\VS\VC\INCLUDE\STDEXCEPT
D:\VS\VC\INCLUDE\EXCEPTION
D:\VS\VC\INCLUDE\XSTDDEF
D:\VS\VC\INCLUDE\CSTDDEF
D:\VS\VC\INCLUDE\STDDEF.H
D:\VS\VC\INCLUDE\INITIALIZER_LIST
D:\VS\VC\INCLUDE\EH.H
D:\VS\VC\INCLUDE\MALLOC.H
D:\VS\VC\INCLUDE\XSTRING
D:\VS\VC\INCLUDE\XMEMORY0
D:\VS\VC\INCLUDE\LIMITS
D:\VS\VC\INCLUDE\YMATH.H
D:\VS\VC\INCLUDE\CFLOAT
D:\VS\VC\INCLUDE\FLOAT.H
D:\VS\VC\INCLUDE\CRTWRN.H
D:\VS\VC\INCLUDE\CWCHAR
D:\VS\VC\INCLUDE\WCHAR.H
D:\VS\VC\INCLUDE\WTIME.INL
D:\VS\VC\INCLUDE\NEW
D:\VS\VC\INCLUDE\XUTILITY
D:\VS\VC\INCLUDE\UTILITY
D:\VS\VC\INCLUDE\IOSFWD
D:\VS\VC\INCLUDE\CRTDBG.H
D:\VS\VC\INCLUDE\TYPE_TRAITS
D:\VS\VC\INCLUDE\XREFWRAP
D:\VS\VC\INCLUDE\XATOMIC0.H
D:\VS\VC\INCLUDE\INTRIN.H
D:\VS\VC\INCLUDE\SETJMP.H
D:\VS\VC\INCLUDE\IMMINTRIN.H
D:\VS\VC\INCLUDE\WMMINTRIN.H
D:\VS\VC\INCLUDE\NMMINTRIN.H
D:\VS\VC\INCLUDE\SMMINTRIN.H
D:\VS\VC\INCLUDE\TMMINTRIN.H
D:\VS\VC\INCLUDE\PMMINTRIN.H
D:\VS\VC\INCLUDE\EMMINTRIN.H
D:\VS\VC\INCLUDE\XMMINTRIN.H
D:\VS\VC\INCLUDE\MMINTRIN.H
D:\VS\VC\INCLUDE\AMMINTRIN.H
D:\VS\VC\INCLUDE\MM3DNOW.H
D:\VS\VC\INCLUDE\TYPEINFO
D:\VS\VC\INCLUDE\XLOCINFO
D:\VS\VC\INCLUDE\XLOCINFO.H
D:\VS\VC\INCLUDE\CTYPE.H
D:\VS\VC\INCLUDE\LOCALE.H
D:\VS\VC\INCLUDE\XDEBUG
D:\VS\VC\INCLUDE\XMEMORY
D:\VS\VC\INCLUDE\XFACET
D:\VS\VC\INCLUDE\SYSTEM_ERROR
D:\VS\VC\INCLUDE\CERRNO
D:\VS\VC\INCLUDE\ERRNO.H
D:\VS\VC\INCLUDE\SHARE.H
C:\USERS\саша\DESKTOP\четвертый мг х_х\RAYTRACER\SRC\COMMONMATH\MATH.H
D:\VS\VC\INCLUDE\ALGORITHM
D:\VS\VC\INCLUDE\VECTOR
D:\VS\VC\INCLUDE\LIST
C:\USERS\саша\DESKTOP\четвертый мг х_х\RAYTRACER\SRC\COMMONMATH\QUATERNION.H
^C:\USERS\Саша\DESKTOP\ЧЕТВЕРТЫЙ МГ Х_Х\RAYTRACER\SRC\COMMONMATH\VECTOR4.CPP
C:\USERS\саша\DESKTOP\четвертый мг х_х\RAYTRACER\SRC\COMMONMATH\VECTOR4.H
C:\USERS\саша\DESKTOP\четвертый мг х_х\RAYTRACER\SRC\COMMONMATH\VECTOR3.H
D:\VS\VC\INCLUDE\ASSERT.H
D:\VS\VC\INCLUDE\CRTDEFS.H
D:\VS\VC\INCLUDE\SAL.H
D:\VS\VC\INCLUDE\CONCURRENCYSAL.H
D:\VS\VC\INCLUDE\VADEFS.H
D:\VS\VC\INCLUDE\IOSTREAM
D:\VS\VC\INCLUDE\ISTREAM
D:\VS\VC\INCLUDE\OSTREAM
D:\VS\VC\INCLUDE\IOS
D:\VS\VC\INCLUDE\XLOCNUM
D:\VS\VC\INCLUDE\CLIMITS
D:\VS\VC\INCLUDE\YVALS.H
D:\VS\VC\INCLUDE\XKEYCHECK.H
D:\VS\VC\INCLUDE\USE_ANSI.H
D:\VS\VC\INCLUDE\LIMITS.H
D:\VS\VC\INCLUDE\CMATH
D:\VS\VC\INCLUDE\MATH.H
D:\VS\VC\INCLUDE\XTGMATH.H
D:\VS\VC\INCLUDE\XTR1COMMON
D:\VS\VC\INCLUDE\CSTDIO
D:\VS\VC\INCLUDE\STDIO.H
D:\VS\VC\INCLUDE\SWPRINTF.INL
D:\VS\VC\INCLUDE\CSTDLIB
D:\VS\VC\INCLUDE\STDLIB.H
D:\VS\VC\INCLUDE\STREAMBUF
D:\VS\VC\INCLUDE\XIOSBASE
D:\VS\VC\INCLUDE\XLOCALE
D:\VS\VC\INCLUDE\CSTRING
D:\VS\VC\INCLUDE\STRING.H
D:\VS\VC\INCLUDE\STDEXCEPT
D:\VS\VC\INCLUDE\EXCEPTION
D:\VS\VC\INCLUDE\XSTDDEF
D:\VS\VC\INCLUDE\CSTDDEF
D:\VS\VC\INCLUDE\STDDEF.H
D:\VS\VC\INCLUDE\INITIALIZER_LIST
D:\VS\VC\INCLUDE\EH.H
D:\VS\VC\INCLUDE\MALLOC.H
D:\VS\VC\INCLUDE\XSTRING
D:\VS\VC\INCLUDE\XMEMORY0
D:\VS\VC\INCLUDE\LIMITS
D:\VS\VC\INCLUDE\YMATH.H
D:\VS\VC\INCLUDE\CFLOAT
D:\VS\VC\INCLUDE\FLOAT.H
D:\VS\VC\INCLUDE\CRTWRN.H
D:\VS\VC\INCLUDE\CWCHAR
D:\VS\VC\INCLUDE\WCHAR.H
D:\VS\VC\INCLUDE\WTIME.INL
D:\VS\VC\INCLUDE\NEW
D:\VS\VC\INCLUDE\XUTILITY
D:\VS\VC\INCLUDE\UTILITY
D:\VS\VC\INCLUDE\IOSFWD
D:\VS\VC\INCLUDE\CRTDBG.H
D:\VS\VC\INCLUDE\TYPE_TRAITS
D:\VS\VC\INCLUDE\XREFWRAP
D:\VS\VC\INCLUDE\XATOMIC0.H
D:\VS\VC\INCLUDE\INTRIN.H
D:\VS\VC\INCLUDE\SETJMP.H
D:\VS\VC\INCLUDE\IMMINTRIN.H
D:\VS\VC\INCLUDE\WMMINTRIN.H
D:\VS\VC\INCLUDE\NMMINTRIN.H
D:\VS\VC\INCLUDE\SMMINTRIN.H
D:\VS\VC\INCLUDE\TMMINTRIN.H
D:\VS\VC\INCLUDE\PMMINTRIN.H
D:\VS\VC\INCLUDE\EMMINTRIN.H
D:\VS\VC\INCLUDE\XMMINTRIN.H
D:\VS\VC\INCLUDE\MMINTRIN.H
D:\VS\VC\INCLUDE\AMMINTRIN.H
D:\VS\VC\INCLUDE\MM3DNOW.H
D:\VS\VC\INCLUDE\TYPEINFO
D:\VS\VC\INCLUDE\XLOCINFO
D:\VS\VC\INCLUDE\XLOCINFO.H
D:\VS\VC\INCLUDE\CTYPE.H
D:\VS\VC\INCLUDE\LOCALE.H
D:\VS\VC\INCLUDE\XDEBUG
D:\VS\VC\INCLUDE\XMEMORY
D:\VS\VC\INCLUDE\XFACET
D:\VS\VC\INCLUDE\SYSTEM_ERROR
D:\VS\VC\INCLUDE\CERRNO
D:\VS\VC\INCLUDE\ERRNO.H
D:\VS\VC\INCLUDE\SHARE.H
C:\USERS\саша\DESKTOP\четвертый мг х_х\RAYTRACER\SRC\COMMONMATH\MATH.H
D:\VS\VC\INCLUDE\ALGORITHM
D:\VS\VC\INCLUDE\VECTOR
D:\VS\VC\INCLUDE\LIST
C:\USERS\саша\DESKTOP\четвертый мг х_х\RAYTRACER\SRC\COMMONMATH\QUATERNION.H
^C:\USERS\Саша\DESKTOP\ЧЕТВЕРТЫЙ МГ Х_Х\RAYTRACER\SRC\COMMONMATH\VECTOR2.CPP
C:\USERS\саша\DESKTOP\четвертый мг х_х\RAYTRACER\SRC\COMMONMATH\VECTOR2.H
D:\VS\VC\INCLUDE\ASSERT.H
D:\VS\VC\INCLUDE\CRTDEFS.H
D:\VS\VC\INCLUDE\SAL.H
D:\VS\VC\INCLUDE\CONCURRENCYSAL.H
D:\VS\VC\INCLUDE\VADEFS.H
C:\USERS\саша\DESKTOP\четвертый мг х_х\RAYTRACER\SRC\COMMONMATH\MATH.H
D:\VS\VC\INCLUDE\CMATH
D:\VS\VC\INCLUDE\YVALS.H
D:\VS\VC\INCLUDE\XKEYCHECK.H
D:\VS\VC\INCLUDE\USE_ANSI.H
D:\VS\VC\INCLUDE\MATH.H
D:\VS\VC\INCLUDE\XTGMATH.H
D:\VS\VC\INCLUDE\XTR1COMMON
D:\VS\VC\INCLUDE\ALGORITHM
D:\VS\VC\INCLUDE\XMEMORY
D:\VS\VC\INCLUDE\XMEMORY0
D:\VS\VC\INCLUDE\CSTDLIB
D:\VS\VC\INCLUDE\STDLIB.H
D:\VS\VC\INCLUDE\LIMITS.H
D:\VS\VC\INCLUDE\LIMITS
D:\VS\VC\INCLUDE\YMATH.H
D:\VS\VC\INCLUDE\CFLOAT
D:\VS\VC\INCLUDE\FLOAT.H
D:\VS\VC\INCLUDE\CRTWRN.H
D:\VS\VC\INCLUDE\CLIMITS
D:\VS\VC\INCLUDE\CWCHAR
D:\VS\VC\INCLUDE\WCHAR.H
D:\VS\VC\INCLUDE\SWPRINTF.INL
D:\VS\VC\INCLUDE\WTIME.INL
D:\VS\VC\INCLUDE\XSTDDEF
D:\VS\VC\INCLUDE\CSTDDEF
D:\VS\VC\INCLUDE\STDDEF.H
D:\VS\VC\INCLUDE\INITIALIZER_LIST
D:\VS\VC\INCLUDE\NEW
D:\VS\VC\INCLUDE\EXCEPTION
D:\VS\VC\INCLUDE\EH.H
D:\VS\VC\INCLUDE\MALLOC.H
D:\VS\VC\INCLUDE\STRING.H
D:\VS\VC\INCLUDE\XUTILITY
D:\VS\VC\INCLUDE\UTILITY
D:\VS\VC\INCLUDE\IOSFWD
D:\VS\VC\INCLUDE\CSTDIO
D:\VS\VC\INCLUDE\STDIO.H
D:\VS\VC\INCLUDE\CSTRING
D:\VS\VC\INCLUDE\CRTDBG.H
D:\VS\VC\INCLUDE\TYPE_TRAITS
D:\VS\VC\INCLUDE\XREFWRAP
D:\VS\VC\INCLUDE\XATOMIC0.H
D:\VS\VC\INCLUDE\INTRIN.H
D:\VS\VC\INCLUDE\SETJMP.H
D:\VS\VC\INCLUDE\IMMINTRIN.H
D:\VS\VC\INCLUDE\WMMINTRIN.H
D:\VS\VC\INCLUDE\NMMINTRIN.H
D:\VS\VC\INCLUDE\SMMINTRIN.H
D:\VS\VC\INCLUDE\TMMINTRIN.H
D:\VS\VC\INCLUDE\PMMINTRIN.H
D:\VS\VC\INCLUDE\EMMINTRIN.H
D:\VS\VC\INCLUDE\XMMINTRIN.H
D:\VS\VC\INCLUDE\MMINTRIN.H
D:\VS\VC\INCLUDE\AMMINTRIN.H
D:\VS\VC\INCLUDE\MM3DNOW.H
D:\VS\VC\INCLUDE\VECTOR
D:\VS\VC\INCLUDE\STDEXCEPT
D:\VS\VC\INCLUDE\XSTRING
D:\VS\VC\INCLUDE\LIST
^C:\USERS\Саша\DESKTOP\ЧЕТВЕРТЫЙ МГ Х_Х\RAYTRACER\SRC\COMMONMATH\QUATERNION.CPP
C:\USERS\саша\DESKTOP\четвертый мг х_х\RAYTRACER\SRC\COMMONMATH\QUATERNION.H
D:\VS\VC\INCLUDE\ASSERT.H
D:\VS\VC\INCLUDE\CRTDEFS.H
D:\VS\VC\INCLUDE\SAL.H
D:\VS\VC\INCLUDE\CONCURRENCYSAL.H
D:\VS\VC\INCLUDE\VADEFS.H
C:\USERS\саша\DESKTOP\четвертый мг х_х\RAYTRACER\SRC\COMMONMATH\MATH.H
D:\VS\VC\INCLUDE\CMATH
D:\VS\VC\INCLUDE\YVALS.H
D:\VS\VC\INCLUDE\XKEYCHECK.H
D:\VS\VC\INCLUDE\USE_ANSI.H
D:\VS\VC\INCLUDE\MATH.H
D:\VS\VC\INCLUDE\XTGMATH.H
D:\VS\VC\INCLUDE\XTR1COMMON
D:\VS\VC\INCLUDE\ALGORITHM
D:\VS\VC\INCLUDE\XMEMORY
D:\VS\VC\INCLUDE\XMEMORY0
D:\VS\VC\INCLUDE\CSTDLIB
D:\VS\VC\INCLUDE\STDLIB.H
D:\VS\VC\INCLUDE\LIMITS.H
D:\VS\VC\INCLUDE\LIMITS
D:\VS\VC\INCLUDE\YMATH.H
D:\VS\VC\INCLUDE\CFLOAT
D:\VS\VC\INCLUDE\FLOAT.H
D:\VS\VC\INCLUDE\CRTWRN.H
D:\VS\VC\INCLUDE\CLIMITS
D:\VS\VC\INCLUDE\CWCHAR
D:\VS\VC\INCLUDE\WCHAR.H
D:\VS\VC\INCLUDE\SWPRINTF.INL
D:\VS\VC\INCLUDE\WTIME.INL
D:\VS\VC\INCLUDE\XSTDDEF
D:\VS\VC\INCLUDE\CSTDDEF
D:\VS\VC\INCLUDE\STDDEF.H
D:\VS\VC\INCLUDE\INITIALIZER_LIST
D:\VS\VC\INCLUDE\NEW
D:\VS\VC\INCLUDE\EXCEPTION
D:\VS\VC\INCLUDE\EH.H
D:\VS\VC\INCLUDE\MALLOC.H
D:\VS\VC\INCLUDE\STRING.H
D:\VS\VC\INCLUDE\XUTILITY
D:\VS\VC\INCLUDE\UTILITY
D:\VS\VC\INCLUDE\IOSFWD
D:\VS\VC\INCLUDE\CSTDIO
D:\VS\VC\INCLUDE\STDIO.H
D:\VS\VC\INCLUDE\CSTRING
D:\VS\VC\INCLUDE\CRTDBG.H
D:\VS\VC\INCLUDE\TYPE_TRAITS
D:\VS\VC\INCLUDE\XREFWRAP
D:\VS\VC\INCLUDE\XATOMIC0.H
D:\VS\VC\INCLUDE\INTRIN.H
D:\VS\VC\INCLUDE\SETJMP.H
D:\VS\VC\INCLUDE\IMMINTRIN.H
D:\VS\VC\INCLUDE\WMMINTRIN.H
D:\VS\VC\INCLUDE\NMMINTRIN.H
D:\VS\VC\INCLUDE\SMMINTRIN.H
D:\VS\VC\INCLUDE\TMMINTRIN.H
D:\VS\VC\INCLUDE\PMMINTRIN.H
D:\VS\VC\INCLUDE\EMMINTRIN.H
D:\VS\VC\INCLUDE\XMMINTRIN.H
D:\VS\VC\INCLUDE\MMINTRIN.H
D:\VS\VC\INCLUDE\AMMINTRIN.H
D:\VS\VC\INCLUDE\MM3DNOW.H
D:\VS\VC\INCLUDE\VECTOR
D:\VS\VC\INCLUDE\STDEXCEPT
D:\VS\VC\INCLUDE\XSTRING
D:\VS\VC\INCLUDE\LIST
C:\USERS\саша\DESKTOP\четвертый мг х_х\RAYTRACER\SRC\COMMONMATH\MATRIX3.H
D:\VS\VC\INCLUDE\IOSTREAM
D:\VS\VC\INCLUDE\ISTREAM
D:\VS\VC\INCLUDE\OSTREAM
D:\VS\VC\INCLUDE\IOS
D:\VS\VC\INCLUDE\XLOCNUM
D:\VS\VC\INCLUDE\STREAMBUF
D:\VS\VC\INCLUDE\XIOSBASE
D:\VS\VC\INCLUDE\XLOCALE
D:\VS\VC\INCLUDE\TYPEINFO
D:\VS\VC\INCLUDE\XLOCINFO
D:\VS\VC\INCLUDE\XLOCINFO.H
D:\VS\VC\INCLUDE\CTYPE.H
D:\VS\VC\INCLUDE\LOCALE.H
D:\VS\VC\INCLUDE\XDEBUG
D:\VS\VC\INCLUDE\XFACET
D:\VS\VC\INCLUDE\SYSTEM_ERROR
D:\VS\VC\INCLUDE\CERRNO
D:\VS\VC\INCLUDE\ERRNO.H
D:\VS\VC\INCLUDE\SHARE.H
C:\USERS\саша\DESKTOP\четвертый мг х_х\RAYTRACER\SRC\COMMONMATH\VECTOR3.H
^C:\USERS\Саша\DESKTOP\ЧЕТВЕРТЫЙ МГ Х_Х\RAYTRACER\SRC\COMMONMATH\PLANE.CPP
C:\USERS\саша\DESKTOP\четвертый мг х_х\RAYTRACER\SRC\COMMONMATH\PLANE.H
D:\VS\VC\INCLUDE\VECTOR
D:\VS\VC\INCLUDE\XMEMORY
D:\VS\VC\INCLUDE\XMEMORY0
D:\VS\VC\INCLUDE\CSTDLIB
D:\VS\VC\INCLUDE\YVALS.H
D:\VS\VC\INCLUDE\XKEYCHECK.H
D:\VS\VC\INCLUDE\CRTDEFS.H
D:\VS\VC\INCLUDE\SAL.H
D:\VS\VC\INCLUDE\CONCURRENCYSAL.H
D:\VS\VC\INCLUDE\VADEFS.H
D:\VS\VC\INCLUDE\USE_ANSI.H
D:\VS\VC\INCLUDE\STDLIB.H
D:\VS\VC\INCLUDE\LIMITS.H
D:\VS\VC\INCLUDE\LIMITS
D:\VS\VC\INCLUDE\YMATH.H
D:\VS\VC\INCLUDE\CFLOAT
D:\VS\VC\INCLUDE\FLOAT.H
D:\VS\VC\INCLUDE\CRTWRN.H
D:\VS\VC\INCLUDE\CLIMITS
D:\VS\VC\INCLUDE\CMATH
D:\VS\VC\INCLUDE\MATH.H
D:\VS\VC\INCLUDE\XTGMATH.H
D:\VS\VC\INCLUDE\XTR1COMMON
D:\VS\VC\INCLUDE\CWCHAR
D:\VS\VC\INCLUDE\WCHAR.H
D:\VS\VC\INCLUDE\SWPRINTF.INL
D:\VS\VC\INCLUDE\WTIME.INL
D:\VS\VC\INCLUDE\XSTDDEF
D:\VS\VC\INCLUDE\CSTDDEF
D:\VS\VC\INCLUDE\STDDEF.H
D:\VS\VC\INCLUDE\INITIALIZER_LIST
D:\VS\VC\INCLUDE\NEW
D:\VS\VC\INCLUDE\EXCEPTION
D:\VS\VC\INCLUDE\EH.H
D:\VS\VC\INCLUDE\MALLOC.H
D:\VS\VC\INCLUDE\STRING.H
D:\VS\VC\INCLUDE\XUTILITY
D:\VS\VC\INCLUDE\UTILITY
D:\VS\VC\INCLUDE\IOSFWD
D:\VS\VC\INCLUDE\CSTDIO
D:\VS\VC\INCLUDE\STDIO.H
D:\VS\VC\INCLUDE\CSTRING
D:\VS\VC\INCLUDE\CRTDBG.H
D:\VS\VC\INCLUDE\TYPE_TRAITS
D:\VS\VC\INCLUDE\XREFWRAP
D:\VS\VC\INCLUDE\XATOMIC0.H
D:\VS\VC\INCLUDE\INTRIN.H
D:\VS\VC\INCLUDE\SETJMP.H
D:\VS\VC\INCLUDE\IMMINTRIN.H
D:\VS\VC\INCLUDE\WMMINTRIN.H
D:\VS\VC\INCLUDE\NMMINTRIN.H
D:\VS\VC\INCLUDE\SMMINTRIN.H
D:\VS\VC\INCLUDE\TMMINTRIN.H
D:\VS\VC\INCLUDE\PMMINTRIN.H
D:\VS\VC\INCLUDE\EMMINTRIN.H
D:\VS\VC\INCLUDE\XMMINTRIN.H
D:\VS\VC\INCLUDE\MMINTRIN.H
D:\VS\VC\INCLUDE\AMMINTRIN.H
D:\VS\VC\INCLUDE\MM3DNOW.H
D:\VS\VC\INCLUDE\STDEXCEPT
D:\VS\VC\INCLUDE\XSTRING
C:\USERS\саша\DESKTOP\четвертый мг х_х\RAYTRACER\SRC\COMMONMATH\VECTOR3.H
D:\VS\VC\INCLUDE\ASSERT.H
D:\VS\VC\INCLUDE\IOSTREAM
D:\VS\VC\INCLUDE\ISTREAM
D:\VS\VC\INCLUDE\OSTREAM
D:\VS\VC\INCLUDE\IOS
D:\VS\VC\INCLUDE\XLOCNUM
D:\VS\VC\INCLUDE\STREAMBUF
D:\VS\VC\INCLUDE\XIOSBASE
D:\VS\VC\INCLUDE\XLOCALE
D:\VS\VC\INCLUDE\TYPEINFO
D:\VS\VC\INCLUDE\XLOCINFO
D:\VS\VC\INCLUDE\XLOCINFO.H
D:\VS\VC\INCLUDE\CTYPE.H
D:\VS\VC\INCLUDE\LOCALE.H
D:\VS\VC\INCLUDE\XDEBUG
D:\VS\VC\INCLUDE\XFACET
D:\VS\VC\INCLUDE\SYSTEM_ERROR
D:\VS\VC\INCLUDE\CERRNO
D:\VS\VC\INCLUDE\ERRNO.H
D:\VS\VC\INCLUDE\SHARE.H
C:\USERS\саша\DESKTOP\четвертый мг х_х\RAYTRACER\SRC\COMMONMATH\MATH.H
D:\VS\VC\INCLUDE\ALGORITHM
D:\VS\VC\INCLUDE\LIST
C:\USERS\саша\DESKTOP\четвертый мг х_х\RAYTRACER\SRC\COMMONMATH\QUATERNION.H
C:\USERS\саша\DESKTOP\четвертый мг х_х\RAYTRACER\SRC\COMMONMATH\MATRIX3.H
C:\USERS\саша\DESKTOP\четвертый мг х_х\RAYTRACER\SRC\COMMONMATH\AXISALIGNEDBOX.H
C:\USERS\саша\DESKTOP\четвертый мг х_х\RAYTRACER\SRC\COMMONMATH\MATRIX4.H
C:\USERS\саша\DESKTOP\четвертый мг х_х\RAYTRACER\SRC\COMMONMATH\VECTOR4.H
^C:\USERS\Саша\DESKTOP\ЧЕТВЕРТЫЙ МГ Х_Х\RAYTRACER\SRC\COMMONMATH\MATRIX4.CPP
C:\USERS\саша\DESKTOP\четвертый мг х_х\RAYTRACER\SRC\COMMONMATH\MATRIX4.H
C:\USERS\саша\DESKTOP\четвертый мг х_х\RAYTRACER\SRC\COMMONMATH\VECTOR3.H
D:\VS\VC\INCLUDE\ASSERT.H
D:\VS\VC\INCLUDE\CRTDEFS.H
D:\VS\VC\INCLUDE\SAL.H
D:\VS\VC\INCLUDE\CONCURRENCYSAL.H
D:\VS\VC\INCLUDE\VADEFS.H
D:\VS\VC\INCLUDE\IOSTREAM
D:\VS\VC\INCLUDE\ISTREAM
D:\VS\VC\INCLUDE\OSTREAM
D:\VS\VC\INCLUDE\IOS
D:\VS\VC\INCLUDE\XLOCNUM
D:\VS\VC\INCLUDE\CLIMITS
D:\VS\VC\INCLUDE\YVALS.H
D:\VS\VC\INCLUDE\XKEYCHECK.H
D:\VS\VC\INCLUDE\USE_ANSI.H
D:\VS\VC\INCLUDE\LIMITS.H
D:\VS\VC\INCLUDE\CMATH
D:\VS\VC\INCLUDE\MATH.H
D:\VS\VC\INCLUDE\XTGMATH.H
D:\VS\VC\INCLUDE\XTR1COMMON
D:\VS\VC\INCLUDE\CSTDIO
D:\VS\VC\INCLUDE\STDIO.H
D:\VS\VC\INCLUDE\SWPRINTF.INL
D:\VS\VC\INCLUDE\CSTDLIB
D:\VS\VC\INCLUDE\STDLIB.H
D:\VS\VC\INCLUDE\STREAMBUF
D:\VS\VC\INCLUDE\XIOSBASE
D:\VS\VC\INCLUDE\XLOCALE
D:\VS\VC\INCLUDE\CSTRING
D:\VS\VC\INCLUDE\STRING.H
D:\VS\VC\INCLUDE\STDEXCEPT
D:\VS\VC\INCLUDE\EXCEPTION
D:\VS\VC\INCLUDE\XSTDDEF
D:\VS\VC\INCLUDE\CSTDDEF
D:\VS\VC\INCLUDE\STDDEF.H
D:\VS\VC\INCLUDE\INITIALIZER_LIST
D:\VS\VC\INCLUDE\EH.H
D:\VS\VC\INCLUDE\MALLOC.H
D:\VS\VC\INCLUDE\XSTRING
D:\VS\VC\INCLUDE\XMEMORY0
D:\VS\VC\INCLUDE\LIMITS
D:\VS\VC\INCLUDE\YMATH.H
D:\VS\VC\INCLUDE\CFLOAT
D:\VS\VC\INCLUDE\FLOAT.H
D:\VS\VC\INCLUDE\CRTWRN.H
D:\VS\VC\INCLUDE\CWCHAR
D:\VS\VC\INCLUDE\WCHAR.H
D:\VS\VC\INCLUDE\WTIME.INL
D:\VS\VC\INCLUDE\NEW
D:\VS\VC\INCLUDE\XUTILITY
D:\VS\VC\INCLUDE\UTILITY
D:\VS\VC\INCLUDE\IOSFWD
D:\VS\VC\INCLUDE\CRTDBG.H
D:\VS\VC\INCLUDE\TYPE_TRAITS
D:\VS\VC\INCLUDE\XREFWRAP
D:\VS\VC\INCLUDE\XATOMIC0.H
D:\VS\VC\INCLUDE\INTRIN.H
D:\VS\VC\INCLUDE\SETJMP.H
D:\VS\VC\INCLUDE\IMMINTRIN.H
D:\VS\VC\INCLUDE\WMMINTRIN.H
D:\VS\VC\INCLUDE\NMMINTRIN.H
D:\VS\VC\INCLUDE\SMMINTRIN.H
D:\VS\VC\INCLUDE\TMMINTRIN.H
D:\VS\VC\INCLUDE\PMMINTRIN.H
D:\VS\VC\INCLUDE\EMMINTRIN.H
D:\VS\VC\INCLUDE\XMMINTRIN.H
D:\VS\VC\INCLUDE\MMINTRIN.H
D:\VS\VC\INCLUDE\AMMINTRIN.H
D:\VS\VC\INCLUDE\MM3DNOW.H
D:\VS\VC\INCLUDE\TYPEINFO
D:\VS\VC\INCLUDE\XLOCINFO
D:\VS\VC\INCLUDE\XLOCINFO.H
D:\VS\VC\INCLUDE\CTYPE.H
D:\VS\VC\INCLUDE\LOCALE.H
D:\VS\VC\INCLUDE\XDEBUG
D:\VS\VC\INCLUDE\XMEMORY
D:\VS\VC\INCLUDE\XFACET
D:\VS\VC\INCLUDE\SYSTEM_ERROR
D:\VS\VC\INCLUDE\CERRNO
D:\VS\VC\INCLUDE\ERRNO.H
D:\VS\VC\INCLUDE\SHARE.H
C:\USERS\саша\DESKTOP\четвертый мг х_х\RAYTRACER\SRC\COMMONMATH\MATH.H
D:\VS\VC\INCLUDE\ALGORITHM
D:\VS\VC\INCLUDE\VECTOR
D:\VS\VC\INCLUDE\LIST
C:\USERS\саша\DESKTOP\четвертый мг х_х\RAYTRACER\SRC\COMMONMATH\QUATERNION.H
C:\USERS\саша\DESKTOP\четвертый мг х_х\RAYTRACER\SRC\COMMONMATH\MATRIX3.H
C:\USERS\саша\DESKTOP\четвертый мг х_х\RAYTRACER\SRC\COMMONMATH\VECTOR4.H
C:\USERS\саша\DESKTOP\четвертый мг х_х\RAYTRACER\SRC\COMMONMATH\PLANE.H
^C:\USERS\Саша\DESKTOP\ЧЕТВЕРТЫЙ МГ Х_Х\RAYTRACER\SRC\COMMONMATH\MATRIX3.CPP
C:\USERS\саша\DESKTOP\четвертый мг х_х\RAYTRACER\SRC\COMMONMATH\MATRIX3.H
D:\VS\VC\INCLUDE\IOSTREAM
D:\VS\VC\INCLUDE\ISTREAM
D:\VS\VC\INCLUDE\OSTREAM
D:\VS\VC\INCLUDE\IOS
D:\VS\VC\INCLUDE\XLOCNUM
D:\VS\VC\INCLUDE\CLIMITS
D:\VS\VC\INCLUDE\YVALS.H
D:\VS\VC\INCLUDE\XKEYCHECK.H
D:\VS\VC\INCLUDE\CRTDEFS.H
D:\VS\VC\INCLUDE\SAL.H
D:\VS\VC\INCLUDE\CONCURRENCYSAL.H
D:\VS\VC\INCLUDE\VADEFS.H
D:\VS\VC\INCLUDE\USE_ANSI.H
D:\VS\VC\INCLUDE\LIMITS.H
D:\VS\VC\INCLUDE\CMATH
D:\VS\VC\INCLUDE\MATH.H
D:\VS\VC\INCLUDE\XTGMATH.H
D:\VS\VC\INCLUDE\XTR1COMMON
D:\VS\VC\INCLUDE\CSTDIO
D:\VS\VC\INCLUDE\STDIO.H
D:\VS\VC\INCLUDE\SWPRINTF.INL
D:\VS\VC\INCLUDE\CSTDLIB
D:\VS\VC\INCLUDE\STDLIB.H
D:\VS\VC\INCLUDE\STREAMBUF
D:\VS\VC\INCLUDE\XIOSBASE
D:\VS\VC\INCLUDE\XLOCALE
D:\VS\VC\INCLUDE\CSTRING
D:\VS\VC\INCLUDE\STRING.H
D:\VS\VC\INCLUDE\STDEXCEPT
D:\VS\VC\INCLUDE\EXCEPTION
D:\VS\VC\INCLUDE\XSTDDEF
D:\VS\VC\INCLUDE\CSTDDEF
D:\VS\VC\INCLUDE\STDDEF.H
D:\VS\VC\INCLUDE\INITIALIZER_LIST
D:\VS\VC\INCLUDE\EH.H
D:\VS\VC\INCLUDE\MALLOC.H
D:\VS\VC\INCLUDE\XSTRING
D:\VS\VC\INCLUDE\XMEMORY0
D:\VS\VC\INCLUDE\LIMITS
D:\VS\VC\INCLUDE\YMATH.H
D:\VS\VC\INCLUDE\CFLOAT
D:\VS\VC\INCLUDE\FLOAT.H
D:\VS\VC\INCLUDE\CRTWRN.H
D:\VS\VC\INCLUDE\CWCHAR
D:\VS\VC\INCLUDE\WCHAR.H
D:\VS\VC\INCLUDE\WTIME.INL
D:\VS\VC\INCLUDE\NEW
D:\VS\VC\INCLUDE\XUTILITY
D:\VS\VC\INCLUDE\UTILITY
D:\VS\VC\INCLUDE\IOSFWD
D:\VS\VC\INCLUDE\CRTDBG.H
D:\VS\VC\INCLUDE\TYPE_TRAITS
D:\VS\VC\INCLUDE\XREFWRAP
D:\VS\VC\INCLUDE\XATOMIC0.H
D:\VS\VC\INCLUDE\INTRIN.H
D:\VS\VC\INCLUDE\SETJMP.H
D:\VS\VC\INCLUDE\IMMINTRIN.H
D:\VS\VC\INCLUDE\WMMINTRIN.H
D:\VS\VC\INCLUDE\NMMINTRIN.H
D:\VS\VC\INCLUDE\SMMINTRIN.H
D:\VS\VC\INCLUDE\TMMINTRIN.H
D:\VS\VC\INCLUDE\PMMINTRIN.H
D:\VS\VC\INCLUDE\EMMINTRIN.H
D:\VS\VC\INCLUDE\XMMINTRIN.H
D:\VS\VC\INCLUDE\MMINTRIN.H
D:\VS\VC\INCLUDE\AMMINTRIN.H
D:\VS\VC\INCLUDE\MM3DNOW.H
D:\VS\VC\INCLUDE\TYPEINFO
D:\VS\VC\INCLUDE\XLOCINFO
D:\VS\VC\INCLUDE\XLOCINFO.H
D:\VS\VC\INCLUDE\CTYPE.H
D:\VS\VC\INCLUDE\LOCALE.H
D:\VS\VC\INCLUDE\XDEBUG
D:\VS\VC\INCLUDE\XMEMORY
D:\VS\VC\INCLUDE\XFACET
D:\VS\VC\INCLUDE\SYSTEM_ERROR
D:\VS\VC\INCLUDE\CERRNO
D:\VS\VC\INCLUDE\ERRNO.H
D:\VS\VC\INCLUDE\SHARE.H
C:\USERS\саша\DESKTOP\четвертый мг х_х\RAYTRACER\SRC\COMMONMATH\VECTOR3.H
D:\VS\VC\INCLUDE\ASSERT.H
C:\USERS\саша\DESKTOP\четвертый мг х_х\RAYTRACER\SRC\COMMONMATH\MATH.H
D:\VS\VC\INCLUDE\ALGORITHM
D:\VS\VC\INCLUDE\VECTOR
D:\VS\VC\INCLUDE\LIST
C:\USERS\саша\DESKTOP\четвертый мг х_х\RAYTRACER\SRC\COMMONMATH\QUATERNION.H
