^C:\USERS\САША\DESKTOP\ЧЕТВЕРТЫЙ МГ Х_Х\RAYTRACER\SRC\DEBUG\AXISALIGNEDBOX.OBJ|C:\USERS\САША\DESKTOP\ЧЕТВЕРТЫЙ МГ Х_Х\RAYTRACER\SRC\DEBUG\L3DS.OBJ|C:\USERS\САША\DESKTOP\ЧЕТВЕРТЫЙ МГ Х_Х\RAYTRACER\SRC\DEBUG\MAIN.OBJ|C:\USERS\САША\DESKTOP\ЧЕТВЕРТЫЙ МГ Х_Х\RAYTRACER\SRC\DEBUG\MATH.OBJ|C:\USERS\САША\DESKTOP\ЧЕТВЕРТЫЙ МГ Х_Х\RAYTRACER\SRC\DEBUG\MATRIX3.OBJ|C:\USERS\САША\DESKTOP\ЧЕТВЕРТЫЙ МГ Х_Х\RAYTRACER\SRC\DEBUG\MATRIX4.OBJ|C:\USERS\САША\DESKTOP\ЧЕТВЕРТЫЙ МГ Х_Х\RAYTRACER\SRC\DEBUG\PLANE.OBJ|C:\USERS\САША\DESKTOP\ЧЕТВЕРТЫЙ МГ Х_Х\RAYTRACER\SRC\DEBUG\QUATERNION.OBJ|C:\USERS\САША\DESKTOP\ЧЕТВЕРТЫЙ МГ Х_Х\RAYTRACER\SRC\DEBUG\SCENE.OBJ|C:\USERS\САША\DESKTOP\ЧЕТВЕРТЫЙ МГ Х_Х\RAYTRACER\SRC\DEBUG\TRACER.OBJ|C:\USERS\САША\DESKTOP\ЧЕТВЕРТЫЙ МГ Х_Х\RAYTRACER\SRC\DEBUG\VECTOR2.OBJ|C:\USERS\САША\DESKTOP\ЧЕТВЕРТЫЙ МГ Х_Х\RAYTRACER\SRC\DEBUG\VECTOR3.OBJ|C:\USERS\САША\DESKTOP\ЧЕТВЕРТЫЙ МГ Х_Х\RAYTRACER\SRC\DEBUG\VECTOR4.OBJ
C:\WINDOWS\GLOBALIZATION\SORTING\SORTDEFAULT.NLS
C:\PROGRAM FILES (X86)\WINDOWS KITS\8.1\LIB\WINV6.3\UM\X86\KERNEL32.LIB
C:\PROGRAM FILES (X86)\WINDOWS KITS\8.1\LIB\WINV6.3\UM\X86\USER32.LIB
C:\PROGRAM FILES (X86)\WINDOWS KITS\8.1\LIB\WINV6.3\UM\X86\GDI32.LIB
C:\PROGRAM FILES (X86)\WINDOWS KITS\8.1\LIB\WINV6.3\UM\X86\WINSPOOL.LIB
C:\PROGRAM FILES (X86)\WINDOWS KITS\8.1\LIB\WINV6.3\UM\X86\COMDLG32.LIB
C:\PROGRAM FILES (X86)\WINDOWS KITS\8.1\LIB\WINV6.3\UM\X86\ADVAPI32.LIB
C:\PROGRAM FILES (X86)\WINDOWS KITS\8.1\LIB\WINV6.3\UM\X86\SHELL32.LIB
C:\PROGRAM FILES (X86)\WINDOWS KITS\8.1\LIB\WINV6.3\UM\X86\OLE32.LIB
C:\PROGRAM FILES (X86)\WINDOWS KITS\8.1\LIB\WINV6.3\UM\X86\OLEAUT32.LIB
C:\PROGRAM FILES (X86)\WINDOWS KITS\8.1\LIB\WINV6.3\UM\X86\UUID.LIB
C:\PROGRAM FILES (X86)\WINDOWS KITS\8.1\LIB\WINV6.3\UM\X86\ODBC32.LIB
C:\PROGRAM FILES (X86)\WINDOWS KITS\8.1\LIB\WINV6.3\UM\X86\ODBCCP32.LIB
C:\USERS\Саша\DESKTOP\ЧЕТВЕРТЫЙ МГ Х_Х\RAYTRACER\SRC\DEBUG\AXISALIGNEDBOX.OBJ
C:\USERS\Саша\DESKTOP\ЧЕТВЕРТЫЙ МГ Х_Х\RAYTRACER\SRC\DEBUG\MATH.OBJ
C:\USERS\Саша\DESKTOP\ЧЕТВЕРТЫЙ МГ Х_Х\RAYTRACER\SRC\DEBUG\MATRIX3.OBJ
C:\USERS\Саша\DESKTOP\ЧЕТВЕРТЫЙ МГ Х_Х\RAYTRACER\SRC\DEBUG\MATRIX4.OBJ
C:\USERS\Саша\DESKTOP\ЧЕТВЕРТЫЙ МГ Х_Х\RAYTRACER\SRC\DEBUG\PLANE.OBJ
C:\USERS\Саша\DESKTOP\ЧЕТВЕРТЫЙ МГ Х_Х\RAYTRACER\SRC\DEBUG\QUATERNION.OBJ
C:\USERS\Саша\DESKTOP\ЧЕТВЕРТЫЙ МГ Х_Х\RAYTRACER\SRC\DEBUG\VECTOR2.OBJ
C:\USERS\Саша\DESKTOP\ЧЕТВЕРТЫЙ МГ Х_Х\RAYTRACER\SRC\DEBUG\VECTOR3.OBJ
C:\USERS\Саша\DESKTOP\ЧЕТВЕРТЫЙ МГ Х_Х\RAYTRACER\SRC\DEBUG\VECTOR4.OBJ
C:\USERS\Саша\DESKTOP\ЧЕТВЕРТЫЙ МГ Х_Х\RAYTRACER\SRC\DEBUG\L3DS.OBJ
C:\USERS\Саша\DESKTOP\ЧЕТВЕРТЫЙ МГ Х_Х\RAYTRACER\SRC\DEBUG\MAIN.OBJ
C:\USERS\Саша\DESKTOP\ЧЕТВЕРТЫЙ МГ Х_Х\RAYTRACER\SRC\DEBUG\SCENE.OBJ
C:\USERS\Саша\DESKTOP\ЧЕТВЕРТЫЙ МГ Х_Х\RAYTRACER\SRC\DEBUG\TRACER.OBJ
C:\WINDOWS\SYSTEM32\TZRES.DLL
D:\VS\VC\LIB\MSVCPRTD.LIB
D:\VS\VC\LIB\MSVCRTD.LIB
D:\VS\VC\LIB\OLDNAMES.LIB
D:\VS\VC\LIB\VCOMPD.LIB
D:\VS\VC\ATLMFC\LIB\ATLS.LIB
C:\PROGRAM FILES (X86)\WINDOWS KITS\8.1\LIB\WINV6.3\UM\X86\SHLWAPI.LIB
C:\PROGRAM FILES (X86)\WINDOWS KITS\8.1\LIB\WINV6.3\UM\X86\GDIPLUS.LIB
C:\PROGRAM FILES (X86)\WINDOWS KITS\8.1\LIB\WINV6.3\UM\X86\MSIMG32.LIB
D:\VS\VC\BIN\LINK.EXE
C:\WINDOWS\SYSTEM32\RSAENH.DLL
C:\PROGRAM FILES (X86)\WINDOWS KITS\8.1\BIN\X86\RC.EXE
D:\VS\VC\BIN\CVTRES.EXE
